RTL/000_tlul/sim/i2c_tb.vcd
$date
	Sun Jan 25 09:59:16 2026
$end
$version
	QuestaSim Version 2024.1
$end
$timescale
	1ps
$end

$scope module i2c_tb $end
$var parameter 32 ! CLK_PERIOD $end
$var parameter 7 " I2C_SLAVE_ADDR $end
$var parameter 3 # TL_GET $end
$var parameter 3 $ TL_PUT_FULL_DATA $end
$var parameter 32 % I2C_BASE $end
$var parameter 32 & I2C_TX_DATA $end
$var parameter 32 ' I2C_RX_DATA $end
$var parameter 32 ( I2C_ADDR_REG $end
$var parameter 32 ) I2C_STATUS $end
$var parameter 32 * I2C_CONTROL $end
$var parameter 32 + I2C_COMMAND $end
$var reg 1 , clk $end
$var reg 1 - rst_n $end
$var reg 1 . tl_a_valid $end
$var reg 3 / tl_a_opcode [2:0] $end
$var reg 3 0 tl_a_param [2:0] $end
$var reg 3 1 tl_a_size [2:0] $end
$var reg 5 2 tl_a_source [4:0] $end
$var reg 32 3 tl_a_address [31:0] $end
$var reg 4 4 tl_a_mask [3:0] $end
$var reg 32 5 tl_a_data [31:0] $end
$var reg 1 6 tl_a_corrupt $end
$var reg 1 7 tl_a_ready $end
$var reg 1 8 tl_d_valid $end
$var reg 3 9 tl_d_opcode [2:0] $end
$var reg 3 : tl_d_param [2:0] $end
$var reg 3 ; tl_d_size [2:0] $end
$var reg 5 < tl_d_source [4:0] $end
$var reg 1 = tl_d_sink [0:0] $end
$var reg 32 > tl_d_data [31:0] $end
$var reg 1 ? tl_d_denied $end
$var reg 1 @ tl_d_corrupt $end
$var reg 1 A tl_d_ready $end
$var wire 1 B i2c_scl $end
$var wire 1 C i2c_sda $end
$var reg 1 D dut_scl_o $end
$var reg 1 E dut_scl_oen $end
$var reg 1 F dut_sda_o $end
$var reg 1 G dut_sda_oen $end
$var reg 32 H read_data [31:0] $end
$var integer 32 I test_count $end
$var integer 32 J pass_count $end
$var integer 32 K fail_count $end
$var reg 7 L slave_addr_received [6:0] $end
$var reg 1 M slave_rw_bit $end
$var reg 8 N slave_data_received [7:0] $end
$var reg 8 O slave_data_to_send [7:0] $end
$var reg 1 P slave_addr_match $end
$var reg 1 Q slave_active $end
$var reg 4 R slave_bit_cnt [3:0] $end
$var reg 8 S slave_shift_reg [7:0] $end
$var reg 1 T slave_sda_out $end
$var reg 1 U slave_sda_oen $end
$var reg 1 V slave_scl_prev $end
$var reg 1 W slave_sda_prev $end
$var reg 1 X slave_got_start $end
$var reg 1 Y slave_got_stop $end
$var reg 3 Z slave_state [2:0] $end

$scope task tl_write $end
$upscope $end

$scope task tl_read $end
$upscope $end

$scope task wait_i2c_done $end
$upscope $end

$scope task test_register_rw $end
$upscope $end

$scope task test_i2c_write $end
$upscope $end

$scope task test_i2c_read $end
$upscope $end

$scope task test_i2c_nack $end
$upscope $end

$scope module u_dut $end
$var parameter 8 [ ADDR_TX_DATA $end
$var parameter 8 \ ADDR_RX_DATA $end
$var parameter 8 ] ADDR_SLAVE_ADDR $end
$var parameter 8 ^ ADDR_STATUS $end
$var parameter 8 _ ADDR_CONTROL $end
$var parameter 8 ` ADDR_COMMAND $end
$var wire 1 a i_clk $end
$var wire 1 b i_rst_n $end
$var wire 1 c i_tl_a_valid $end
$var wire 1 d i_tl_a_opcode [2] $end
$var wire 1 e i_tl_a_opcode [1] $end
$var wire 1 f i_tl_a_opcode [0] $end
$var wire 1 g i_tl_a_param [2] $end
$var wire 1 h i_tl_a_param [1] $end
$var wire 1 i i_tl_a_param [0] $end
$var wire 1 j i_tl_a_size [2] $end
$var wire 1 k i_tl_a_size [1] $end
$var wire 1 l i_tl_a_size [0] $end
$var wire 1 m i_tl_a_source [4] $end
$var wire 1 n i_tl_a_source [3] $end
$var wire 1 o i_tl_a_source [2] $end
$var wire 1 p i_tl_a_source [1] $end
$var wire 1 q i_tl_a_source [0] $end
$var wire 1 r i_tl_a_address [31] $end
$var wire 1 s i_tl_a_address [30] $end
$var wire 1 t i_tl_a_address [29] $end
$var wire 1 u i_tl_a_address [28] $end
$var wire 1 v i_tl_a_address [27] $end
$var wire 1 w i_tl_a_address [26] $end
$var wire 1 x i_tl_a_address [25] $end
$var wire 1 y i_tl_a_address [24] $end
$var wire 1 z i_tl_a_address [23] $end
$var wire 1 { i_tl_a_address [22] $end
$var wire 1 | i_tl_a_address [21] $end
$var wire 1 } i_tl_a_address [20] $end
$var wire 1 ~ i_tl_a_address [19] $end
$var wire 1 !! i_tl_a_address [18] $end
$var wire 1 "! i_tl_a_address [17] $end
$var wire 1 #! i_tl_a_address [16] $end
$var wire 1 $! i_tl_a_address [15] $end
$var wire 1 %! i_tl_a_address [14] $end
$var wire 1 &! i_tl_a_address [13] $end
$var wire 1 '! i_tl_a_address [12] $end
$var wire 1 (! i_tl_a_address [11] $end
$var wire 1 )! i_tl_a_address [10] $end
$var wire 1 *! i_tl_a_address [9] $end
$var wire 1 +! i_tl_a_address [8] $end
$var wire 1 ,! i_tl_a_address [7] $end
$var wire 1 -! i_tl_a_address [6] $end
$var wire 1 .! i_tl_a_address [5] $end
$var wire 1 /! i_tl_a_address [4] $end
$var wire 1 0! i_tl_a_address [3] $end
$var wire 1 1! i_tl_a_address [2] $end
$var wire 1 2! i_tl_a_address [1] $end
$var wire 1 3! i_tl_a_address [0] $end
$var wire 1 4! i_tl_a_mask [3] $end
$var wire 1 5! i_tl_a_mask [2] $end
$var wire 1 6! i_tl_a_mask [1] $end
$var wire 1 7! i_tl_a_mask [0] $end
$var wire 1 8! i_tl_a_data [31] $end
$var wire 1 9! i_tl_a_data [30] $end
$var wire 1 :! i_tl_a_data [29] $end
$var wire 1 ;! i_tl_a_data [28] $end
$var wire 1 <! i_tl_a_data [27] $end
$var wire 1 =! i_tl_a_data [26] $end
$var wire 1 >! i_tl_a_data [25] $end
$var wire 1 ?! i_tl_a_data [24] $end
$var wire 1 @! i_tl_a_data [23] $end
$var wire 1 A! i_tl_a_data [22] $end
$var wire 1 B! i_tl_a_data [21] $end
$var wire 1 C! i_tl_a_data [20] $end
$var wire 1 D! i_tl_a_data [19] $end
$var wire 1 E! i_tl_a_data [18] $end
$var wire 1 F! i_tl_a_data [17] $end
$var wire 1 G! i_tl_a_data [16] $end
$var wire 1 H! i_tl_a_data [15] $end
$var wire 1 I! i_tl_a_data [14] $end
$var wire 1 J! i_tl_a_data [13] $end
$var wire 1 K! i_tl_a_data [12] $end
$var wire 1 L! i_tl_a_data [11] $end
$var wire 1 M! i_tl_a_data [10] $end
$var wire 1 N! i_tl_a_data [9] $end
$var wire 1 O! i_tl_a_data [8] $end
$var wire 1 P! i_tl_a_data [7] $end
$var wire 1 Q! i_tl_a_data [6] $end
$var wire 1 R! i_tl_a_data [5] $end
$var wire 1 S! i_tl_a_data [4] $end
$var wire 1 T! i_tl_a_data [3] $end
$var wire 1 U! i_tl_a_data [2] $end
$var wire 1 V! i_tl_a_data [1] $end
$var wire 1 W! i_tl_a_data [0] $end
$var wire 1 X! i_tl_a_corrupt $end
$var reg 1 Y! o_tl_a_ready $end
$var reg 1 Z! o_tl_d_valid $end
$var reg 3 [! o_tl_d_opcode [2:0] $end
$var reg 3 \! o_tl_d_param [2:0] $end
$var reg 3 ]! o_tl_d_size [2:0] $end
$var reg 5 ^! o_tl_d_source [4:0] $end
$var reg 1 _! o_tl_d_sink [0:0] $end
$var reg 32 `! o_tl_d_data [31:0] $end
$var reg 1 a! o_tl_d_denied $end
$var reg 1 b! o_tl_d_corrupt $end
$var wire 1 c! i_tl_d_ready $end
$var wire 1 B i_i2c_scl $end
$var reg 1 d! o_i2c_scl $end
$var reg 1 e! o_i2c_scl_oen $end
$var wire 1 C i_i2c_sda $end
$var reg 1 f! o_i2c_sda $end
$var reg 1 g! o_i2c_sda_oen $end
$var reg 1 h! i2c_start $end
$var reg 1 i! i2c_start_req $end
$var reg 1 j! i2c_stop $end
$var reg 1 k! i2c_read $end
$var reg 1 l! i2c_ack_type $end
$var reg 7 m! i2c_slave_addr [6:0] $end
$var reg 8 n! i2c_tx_data [7:0] $end
$var reg 8 o! i2c_rx_data [7:0] $end
$var reg 1 p! i2c_busy $end
$var reg 1 q! i2c_done $end
$var reg 1 r! i2c_ack_error $end
$var reg 1 s! i2c_arb_lost $end
$var reg 16 t! reg_clk_div [15:0] $end
$var reg 7 u! reg_slave_addr [6:0] $end
$var reg 8 v! reg_tx_data [7:0] $end
$var reg 1 w! scl_oen_internal $end
$var reg 1 x! sda_oen_internal $end
$var reg 8 y! reg_addr [7:0] $end
$var reg 3 z! req_opcode_q [2:0] $end
$var reg 3 {! req_size_q [2:0] $end
$var reg 5 |! req_source_q [4:0] $end
$var reg 1 }! req_valid_q $end
$var reg 1 ~! reg_we $end
$var reg 32 !" reg_wdata [31:0] $end
$var reg 32 "" reg_rdata [31:0] $end
$var reg 8 #" addr_latch_q [7:0] $end

$scope module u_i2c_master $end
$var wire 1 a i_clk $end
$var wire 1 b i_rst_n $end
$var wire 1 $" i_start $end
$var wire 1 %" i_stop $end
$var wire 1 &" i_read $end
$var wire 1 '" i_ack_type $end
$var wire 1 (" i_slave_addr [6] $end
$var wire 1 )" i_slave_addr [5] $end
$var wire 1 *" i_slave_addr [4] $end
$var wire 1 +" i_slave_addr [3] $end
$var wire 1 ," i_slave_addr [2] $end
$var wire 1 -" i_slave_addr [1] $end
$var wire 1 ." i_slave_addr [0] $end
$var wire 1 /" i_tx_data [7] $end
$var wire 1 0" i_tx_data [6] $end
$var wire 1 1" i_tx_data [5] $end
$var wire 1 2" i_tx_data [4] $end
$var wire 1 3" i_tx_data [3] $end
$var wire 1 4" i_tx_data [2] $end
$var wire 1 5" i_tx_data [1] $end
$var wire 1 6" i_tx_data [0] $end
$var reg 8 7" o_rx_data [7:0] $end
$var reg 1 8" o_busy $end
$var reg 1 9" o_done $end
$var reg 1 :" o_ack_error $end
$var reg 1 ;" o_arb_lost $end
$var wire 1 <" i_clk_div [15] $end
$var wire 1 =" i_clk_div [14] $end
$var wire 1 >" i_clk_div [13] $end
$var wire 1 ?" i_clk_div [12] $end
$var wire 1 @" i_clk_div [11] $end
$var wire 1 A" i_clk_div [10] $end
$var wire 1 B" i_clk_div [9] $end
$var wire 1 C" i_clk_div [8] $end
$var wire 1 D" i_clk_div [7] $end
$var wire 1 E" i_clk_div [6] $end
$var wire 1 F" i_clk_div [5] $end
$var wire 1 G" i_clk_div [4] $end
$var wire 1 H" i_clk_div [3] $end
$var wire 1 I" i_clk_div [2] $end
$var wire 1 J" i_clk_div [1] $end
$var wire 1 K" i_clk_div [0] $end
$var wire 1 B i_scl $end
$var reg 1 L" o_scl $end
$var reg 1 M" o_scl_oen $end
$var wire 1 C i_sda $end
$var reg 1 N" o_sda $end
$var reg 1 O" o_sda_oen $end
$var reg 4 P" state_q [3:0] $end
$var reg 4 Q" state_d [3:0] $end
$var reg 16 R" clk_cnt_q [15:0] $end
$var reg 4 S" bit_cnt_q [3:0] $end
$var reg 8 T" shift_reg_q [7:0] $end
$var reg 1 U" ack_error_q $end
$var reg 1 V" cmd_read_q $end
$var reg 1 W" cmd_ack_type_q $end
$var reg 1 X" scl_out_q $end
$var reg 1 Y" sda_out_q $end
$var reg 1 Z" phase_q $end
$var reg 1 [" clk_tick $end
$upscope $end
$upscope $end
$upscope $end
$enddefinitions $end
#0
$dumpvars
0,
0-
0.
b0 /
b0 0
b0 1
b0 2
b0 3
b0 4
b0 5
06
17
08
b0 9
b0 :
b0 ;
b0 <
b0 =
b0 >
0?
0@
1A
1D
0E
1F
0G
bx H
1Y!
0Z!
b0 [!
b0 \!
b0 ]!
b0 ^!
b0 _!
b0 `!
0a!
0b!
1d!
0e!
1f!
0g!
0h!
0i!
0j!
0k!
0l!
bx m!
bx n!
b0 o!
0p!
0q!
0r!
0s!
b1111100 t!
b0 u!
b0 v!
0w!
0x!
b0 y!
b0 z!
b0 {!
b0 |!
0}!
0~!
b0 !"
b0 ""
b0 7"
08"
09"
0:"
0;"
1L"
0M"
1N"
0O"
b0 P"
b0 Q"
b0 R"
b0 S"
b0 T"
0U"
0V"
0W"
1X"
1Y"
0Z"
0["
b0 #"
b0 L
0M
b0 N
b10100101 O
0P
xQ
b0 R
b0 S
1T
0U
1V
1W
0X
0Y
b0 Z
b10100 !
b1010000 "
b100 #
b0 $
b10000000000110000000000000000 %
b10000000000110000000000000000 &
b10000000000110000000000000100 '
b10000000000110000000000001000 (
b10000000000110000000000001100 )
b10000000000110000000000010000 *
b10000000000110000000000010100 +
b0 [
b100 \
b1000 ]
b1100 ^
b10000 _
b10100 `
b0 I
b0 J
b0 K
1B
1C
1c!
0X!
0W!
0V!
0U!
0T!
0S!
0R!
0Q!
0P!
0O!
0N!
0M!
0L!
0K!
0J!
0I!
0H!
0G!
0F!
0E!
0D!
0C!
0B!
0A!
0@!
0?!
0>!
0=!
0<!
0;!
0:!
09!
08!
07!
06!
05!
04!
03!
02!
01!
00!
0/!
0.!
0-!
0,!
0+!
0*!
0)!
0(!
0'!
0&!
0%!
0$!
0#!
0"!
0!!
0~
0}
0|
0{
0z
0y
0x
0w
0v
0u
0t
0s
0r
0q
0p
0o
0n
0m
0l
0k
0j
0i
0h
0g
0f
0e
0d
0c
0b
0a
0K"
0J"
1I"
1H"
1G"
1F"
1E"
0D"
0C"
0B"
0A"
0@"
0?"
0>"
0="
0<"
06"
05"
04"
03"
02"
01"
00"
0/"
0."
0-"
0,"
0+"
0*"
0)"
0("
0'"
0&"
0%"
0$"
$end
#10000
1,
1a
#20000
0,
0a
#30000
1,
1a
#40000
0,
0a
#50000
1,
1a
#60000
0,
0a
#70000
1,
1a
#80000
0,
0a
#90000
1,
1a
#100000
0,
0a
#110000
1,
1a
#120000
0,
0a
#130000
1,
1a
#140000
0,
0a
#150000
1,
1a
#160000
0,
0a
#170000
1,
1a
#180000
0,
0a
#190000
1,
1a
1-
1b
#200000
0,
0a
#210000
1,
1a
#220000
0,
0a
#230000
1,
1a
#240000
0,
0a
#250000
1,
1a
#260000
0,
0a
#270000
1,
1a
#280000
0,
0a
#290000
1,
1a
#300000
0,
0a
#310000
1,
1a
#320000
0,
0a
#330000
1,
1a
#340000
0,
0a
#350000
1,
1a
#360000
0,
0a
#370000
1,
1a
#380000
0,
0a
#390000
1,
1a
b1 I
#400000
0,
0a
#410000
1,
1a
1.
b10 1
b1 2
b10000000000110000000000001000 3
b1111 4
b1010000 5
1c
1S!
1Q!
17!
16!
15!
14!
10!
1#!
1"!
1u
1q
1k
b1000 y!
b1010000 !"
1~!
#420000
0,
0a
#430000
1,
1a
b1010000 u!
b10 {!
b1 |!
1}!
b1000 #"
0.
0Y!
1*"
1("
0c
07
0~!
1Z!
b10 ]!
b1 ^!
b1010000 ""
b1 <
b10 ;
18
#440000
0,
0a
#450000
1,
1a
0}!
1Y!
17
0Z!
08
#460000
0,
0a
#470000
1,
1a
#480000
0,
0a
#490000
1,
1a
1.
b100 /
b0 5
1c
0S!
0Q!
1d
b0 !"
#500000
0,
0a
#510000
1,
1a
b100 z!
1}!
0.
0Y!
0c
07
1Z!
b1 [!
b1010000 `!
b1010000 >
b1 9
18
#520000
0,
0a
#530000
1,
1a
0}!
1Y!
17
0Z!
08
#540000
0,
0a
#550000
1,
1a
b1 J
b10 I
#560000
0,
0a
#570000
1,
1a
1.
b0 /
b10000000000110000000000000000 3
b11001101 5
1c
1W!
1U!
1T!
1Q!
1P!
00!
0d
1~!
b0 y!
b11001101 !"
#580000
0,
0a
#590000
1,
1a
b11001101 v!
b0 z!
1}!
b0 #"
0.
0Y!
16"
14"
13"
10"
1/"
0c
07
0~!
1Z!
b0 [!
b0 `!
b0 ""
b11001101 ""
b0 >
b0 9
18
#600000
0,
0a
#610000
1,
1a
0}!
1Y!
17
0Z!
08
#620000
0,
0a
#630000
1,
1a
#640000
0,
0a
#650000
1,
1a
1.
b100 /
b0 5
1c
0W!
0U!
0T!
0Q!
0P!
1d
b0 !"
#660000
0,
0a
#670000
1,
1a
b100 z!
1}!
0.
0Y!
0c
07
1Z!
b1 [!
b11001101 `!
b11001101 >
b1 9
18
#680000
0,
0a
#690000
1,
1a
0}!
1Y!
17
0Z!
08
#700000
0,
0a
#710000
1,
1a
b10 J
b11 I
#720000
0,
0a
#730000
1,
1a
1.
b0 /
b10000000000110000000000010000 3
b1100011 5
1c
1W!
1V!
1R!
1Q!
1/!
0d
1~!
b10000 y!
b1100011 !"
#740000
0,
0a
#750000
1,
1a
b1100011 t!
b0 z!
1}!
b10000 #"
0.
0Y!
1K"
1J"
0I"
0H"
0G"
0c
07
0~!
1Z!
b0 [!
b0 `!
b0 ""
b1100011 ""
b0 >
b0 9
18
#760000
0,
0a
#770000
1,
1a
0}!
1Y!
17
0Z!
08
#780000
0,
0a
#790000
1,
1a
#800000
0,
0a
#810000
1,
1a
1.
b100 /
b0 5
1c
0W!
0V!
0R!
0Q!
1d
b0 !"
#820000
0,
0a
#830000
1,
1a
b100 z!
1}!
0.
0Y!
0c
07
1Z!
b1 [!
b1100011 `!
b1100011 >
b1 9
18
#840000
0,
0a
#850000
1,
1a
0}!
1Y!
17
0Z!
08
#860000
0,
0a
#870000
1,
1a
b11 J
b100 I
#880000
0,
0a
#890000
1,
1a
1.
b0 /
b111 5
1c
1W!
1V!
1U!
0d
1~!
b111 !"
#900000
0,
0a
#910000
1,
1a
b111 t!
b0 z!
1}!
0.
0Y!
1I"
0F"
0E"
0c
07
0~!
1Z!
b0 [!
b0 `!
b0 ""
b111 ""
b0 >
b0 9
18
#920000
0,
0a
#930000
1,
1a
0}!
1Y!
17
0Z!
08
#940000
0,
0a
#950000
1,
1a
#960000
0,
0a
#970000
1,
1a
1.
b10000000000110000000000001000 3
b1010000 5
1c
0W!
0V!
0U!
1S!
1Q!
10!
0/!
b1000 y!
b1010000 !"
1~!
#980000
0,
0a
#990000
1,
1a
1}!
b1000 #"
0.
0Y!
0c
07
0~!
b0 ""
b1010000 ""
1Z!
18
#1000000
0,
0a
#1010000
1,
1a
0}!
1Y!
17
0Z!
08
#1020000
0,
0a
#1030000
1,
1a
#1040000
0,
0a
#1050000
1,
1a
1.
b10000000000110000000000000000 3
b10111110 5
1c
1V!
1U!
1T!
1R!
0Q!
1P!
00!
b0 y!
b10111110 !"
1~!
#1060000
0,
0a
#1070000
1,
1a
b10111110 v!
1}!
b0 #"
0.
0Y!
06"
15"
12"
11"
00"
0c
07
0~!
1Z!
b0 ""
b10111110 ""
18
#1080000
0,
0a
#1090000
1,
1a
0}!
1Y!
17
0Z!
08
#1100000
0,
0a
#1110000
1,
1a
#1120000
0,
0a
#1130000
1,
1a
1.
b10000000000110000000000010100 3
b1 5
1c
1W!
0V!
0U!
0T!
0S!
0R!
0P!
11!
1/!
b10100 y!
b1 !"
1~!
#1140000
0,
0a
#1150000
1,
1a
1i!
1}!
b10100 #"
0.
0Y!
1h!
0c
07
0~!
1$"
b1 Q"
b0 ""
1Z!
18
#1160000
0,
0a
#1170000
1,
1a
b1 P"
b10100000 T"
0}!
1Y!
b10100000 7"
18"
1p!
b10100000 o!
17
0Z!
08
#1180000
0,
0a
#1190000
1,
1a
b1 R"
0i!
0h!
0$"
#1200000
0,
0a
#1210000
1,
1a
b10 R"
#1220000
0,
0a
#1230000
1,
1a
b11 R"
#1240000
0,
0a
#1250000
1,
1a
b100 R"
#1260000
0,
0a
#1270000
1,
1a
b101 R"
#1280000
0,
0a
#1290000
1,
1a
b110 R"
#1300000
0,
0a
#1310000
1,
1a
b111 R"
1["
b10 Q"
#1320000
0,
0a
#1330000
1,
1a
b0 R"
b10 P"
0["
#1340000
0,
0a
#1350000
1,
1a
b1 R"
0Y"
0N"
1O"
1x!
0f!
0F
1g!
1G
0C
#1360000
0,
0a
#1370000
1,
1a
b10 R"
0W
1X
#1380000
0,
0a
#1390000
1,
1a
b11 R"
b1 Z
0X
#1400000
0,
0a
#1410000
1,
1a
b100 R"
#1420000
0,
0a
#1430000
1,
1a
b101 R"
#1440000
0,
0a
#1450000
1,
1a
b110 R"
#1460000
0,
0a
#1470000
1,
1a
b111 R"
1["
b11 Q"
#1480000
0,
0a
#1490000
1,
1a
b0 R"
b11 P"
0["
#1500000
0,
0a
#1510000
1,
1a
b1 R"
0X"
0L"
1M"
1w!
0d!
0D
1e!
1E
0B
#1520000
0,
0a
#1530000
1,
1a
b10 R"
0V
#1540000
0,
0a
#1550000
1,
1a
b11 R"
#1560000
0,
0a
#1570000
1,
1a
b100 R"
#1580000
0,
0a
#1590000
1,
1a
b101 R"
#1600000
0,
0a
#1610000
1,
1a
b110 R"
#1620000
0,
0a
#1630000
1,
1a
b111 R"
1["
b100 Q"
#1640000
0,
0a
#1650000
1,
1a
b0 R"
b100 P"
0["
#1660000
0,
0a
#1670000
1,
1a
b1 R"
1Y"
1N"
0O"
0x!
1f!
1F
0g!
1C
0G
#1680000
0,
0a
#1690000
1,
1a
b10 R"
1W
#1700000
0,
0a
#1710000
1,
1a
b11 R"
#1720000
0,
0a
#1730000
1,
1a
b100 R"
#1740000
0,
0a
#1750000
1,
1a
b101 R"
#1760000
0,
0a
#1770000
1,
1a
b110 R"
#1780000
0,
0a
#1790000
1,
1a
b111 R"
1["
b101 Q"
#1800000
0,
0a
#1810000
1,
1a
b0 R"
b101 P"
0["
#1820000
0,
0a
#1830000
1,
1a
b1 R"
1X"
1L"
0M"
0w!
1d!
1D
0e!
1B
0E
#1840000
0,
0a
#1850000
1,
1a
b10 R"
1V
b1 S
b1 R
#1860000
0,
0a
#1870000
1,
1a
b11 R"
#1880000
0,
0a
#1890000
1,
1a
b100 R"
#1900000
0,
0a
#1910000
1,
1a
b101 R"
#1920000
0,
0a
#1930000
1,
1a
b110 R"
#1940000
0,
0a
#1950000
1,
1a
b111 R"
1["
b100 Q"
#1960000
0,
0a
#1970000
1,
1a
b0 R"
b100 P"
b1 S"
b1000001 T"
b1000001 7"
0["
b1000001 o!
#1980000
0,
0a
#1990000
1,
1a
b1 R"
0X"
0Y"
0N"
1O"
0L"
1M"
1w!
0d!
1x!
0f!
0F
1g!
0D
1e!
1E
1G
0C
0B
#2000000
0,
0a
#2010000
1,
1a
b10 R"
0V
0W
#2020000
0,
0a
#2030000
1,
1a
b11 R"
#2040000
0,
0a
#2050000
1,
1a
b100 R"
#2060000
0,
0a
#2070000
1,
1a
b101 R"
#2080000
0,
0a
#2090000
1,
1a
b110 R"
#2100000
0,
0a
#2110000
1,
1a
b111 R"
1["
b101 Q"
#2120000
0,
0a
#2130000
1,
1a
b0 R"
b101 P"
0["
#2140000
0,
0a
#2150000
1,
1a
b1 R"
1X"
1L"
0M"
0w!
1d!
1D
0e!
1B
0E
#2160000
0,
0a
#2170000
1,
1a
b10 R"
1V
b10 S
b10 R
#2180000
0,
0a
#2190000
1,
1a
b11 R"
#2200000
0,
0a
#2210000
1,
1a
b100 R"
#2220000
0,
0a
#2230000
1,
1a
b101 R"
#2240000
0,
0a
#2250000
1,
1a
b110 R"
#2260000
0,
0a
#2270000
1,
1a
b111 R"
1["
b100 Q"
#2280000
0,
0a
#2290000
1,
1a
b0 R"
b100 P"
b10 S"
b10000011 T"
b10000011 7"
0["
b10000011 o!
#2300000
0,
0a
#2310000
1,
1a
b1 R"
0X"
1Y"
1N"
0O"
0L"
1M"
1w!
0d!
0x!
1f!
1F
0g!
0D
1e!
1C
1E
0G
0B
#2320000
0,
0a
#2330000
1,
1a
b10 R"
0V
1W
#2340000
0,
0a
#2350000
1,
1a
b11 R"
#2360000
0,
0a
#2370000
1,
1a
b100 R"
#2380000
0,
0a
#2390000
1,
1a
b101 R"
#2400000
0,
0a
#2410000
1,
1a
b110 R"
#2420000
0,
0a
#2430000
1,
1a
b111 R"
1["
b101 Q"
#2440000
0,
0a
#2450000
1,
1a
b0 R"
b101 P"
0["
#2460000
0,
0a
#2470000
1,
1a
b1 R"
1X"
1L"
0M"
0w!
1d!
1D
0e!
1B
0E
#2480000
0,
0a
#2490000
1,
1a
b10 R"
1V
b101 S
b11 R
#2500000
0,
0a
#2510000
1,
1a
b11 R"
#2520000
0,
0a
#2530000
1,
1a
b100 R"
#2540000
0,
0a
#2550000
1,
1a
b101 R"
#2560000
0,
0a
#2570000
1,
1a
b110 R"
#2580000
0,
0a
#2590000
1,
1a
b111 R"
1["
b100 Q"
#2600000
0,
0a
#2610000
1,
1a
b0 R"
b100 P"
b11 S"
b111 T"
b111 7"
0["
b111 o!
#2620000
0,
0a
#2630000
1,
1a
b1 R"
0X"
0Y"
0N"
1O"
0L"
1M"
1w!
0d!
1x!
0f!
0F
1g!
0D
1e!
1E
1G
0C
0B
#2640000
0,
0a
#2650000
1,
1a
b10 R"
0V
0W
#2660000
0,
0a
#2670000
1,
1a
b11 R"
#2680000
0,
0a
#2690000
1,
1a
b100 R"
#2700000
0,
0a
#2710000
1,
1a
b101 R"
#2720000
0,
0a
#2730000
1,
1a
b110 R"
#2740000
0,
0a
#2750000
1,
1a
b111 R"
1["
b101 Q"
#2760000
0,
0a
#2770000
1,
1a
b0 R"
b101 P"
0["
#2780000
0,
0a
#2790000
1,
1a
b1 R"
1X"
1L"
0M"
0w!
1d!
1D
0e!
1B
0E
#2800000
0,
0a
#2810000
1,
1a
b10 R"
1V
b1010 S
b100 R
#2820000
0,
0a
#2830000
1,
1a
b11 R"
#2840000
0,
0a
#2850000
1,
1a
b100 R"
#2860000
0,
0a
#2870000
1,
1a
b101 R"
#2880000
0,
0a
#2890000
1,
1a
b110 R"
#2900000
0,
0a
#2910000
1,
1a
b111 R"
1["
b100 Q"
#2920000
0,
0a
#2930000
1,
1a
b0 R"
b100 P"
b100 S"
b1111 T"
b1111 7"
0["
b1111 o!
#2940000
0,
0a
#2950000
1,
1a
b1 R"
0X"
0L"
1M"
1w!
0d!
0D
1e!
1E
0B
#2960000
0,
0a
#2970000
1,
1a
b10 R"
0V
#2980000
0,
0a
#2990000
1,
1a
b11 R"
#3000000
0,
0a
#3010000
1,
1a
b100 R"
#3020000
0,
0a
#3030000
1,
1a
b101 R"
#3040000
0,
0a
#3050000
1,
1a
b110 R"
#3060000
0,
0a
#3070000
1,
1a
b111 R"
1["
b101 Q"
#3080000
0,
0a
#3090000
1,
1a
b0 R"
b101 P"
0["
#3100000
0,
0a
#3110000
1,
1a
b1 R"
1X"
1L"
0M"
0w!
1d!
1D
0e!
1B
0E
#3120000
0,
0a
#3130000
1,
1a
b10 R"
1V
b10100 S
b101 R
#3140000
0,
0a
#3150000
1,
1a
b11 R"
#3160000
0,
0a
#3170000
1,
1a
b100 R"
#3180000
0,
0a
#3190000
1,
1a
b101 R"
#3200000
0,
0a
#3210000
1,
1a
b110 R"
#3220000
0,
0a
#3230000
1,
1a
b111 R"
1["
b100 Q"
#3240000
0,
0a
#3250000
1,
1a
b0 R"
b100 P"
b101 S"
b11111 T"
b11111 7"
0["
b11111 o!
#3260000
0,
0a
#3270000
1,
1a
b1 R"
0X"
0L"
1M"
1w!
0d!
0D
1e!
1E
0B
#3280000
0,
0a
#3290000
1,
1a
b10 R"
0V
#3300000
0,
0a
#3310000
1,
1a
b11 R"
#3320000
0,
0a
#3330000
1,
1a
b100 R"
#3340000
0,
0a
#3350000
1,
1a
b101 R"
#3360000
0,
0a
#3370000
1,
1a
b110 R"
#3380000
0,
0a
#3390000
1,
1a
b111 R"
1["
b101 Q"
#3400000
0,
0a
#3410000
1,
1a
b0 R"
b101 P"
0["
#3420000
0,
0a
#3430000
1,
1a
b1 R"
1X"
1L"
0M"
0w!
1d!
1D
0e!
1B
0E
#3440000
0,
0a
#3450000
1,
1a
b10 R"
1V
b101000 S
b110 R
#3460000
0,
0a
#3470000
1,
1a
b11 R"
#3480000
0,
0a
#3490000
1,
1a
b100 R"
#3500000
0,
0a
#3510000
1,
1a
b101 R"
#3520000
0,
0a
#3530000
1,
1a
b110 R"
#3540000
0,
0a
#3550000
1,
1a
b111 R"
1["
b100 Q"
#3560000
0,
0a
#3570000
1,
1a
b0 R"
b100 P"
b110 S"
b111111 T"
b111111 7"
0["
b111111 o!
#3580000
0,
0a
#3590000
1,
1a
b1 R"
0X"
0L"
1M"
1w!
0d!
0D
1e!
1E
0B
#3600000
0,
0a
#3610000
1,
1a
b10 R"
0V
#3620000
0,
0a
#3630000
1,
1a
b11 R"
#3640000
0,
0a
#3650000
1,
1a
b100 R"
#3660000
0,
0a
#3670000
1,
1a
b101 R"
#3680000
0,
0a
#3690000
1,
1a
b110 R"
#3700000
0,
0a
#3710000
1,
1a
b111 R"
1["
b101 Q"
#3720000
0,
0a
#3730000
1,
1a
b0 R"
b101 P"
0["
#3740000
0,
0a
#3750000
1,
1a
b1 R"
1X"
1L"
0M"
0w!
1d!
1D
0e!
1B
0E
#3760000
0,
0a
#3770000
1,
1a
b10 R"
1V
b1010000 S
b111 R
#3780000
0,
0a
#3790000
1,
1a
b11 R"
#3800000
0,
0a
#3810000
1,
1a
b100 R"
#3820000
0,
0a
#3830000
1,
1a
b101 R"
#3840000
0,
0a
#3850000
1,
1a
b110 R"
#3860000
0,
0a
#3870000
1,
1a
b111 R"
1["
b100 Q"
#3880000
0,
0a
#3890000
1,
1a
b0 R"
b100 P"
b111 S"
b1111111 T"
b1111111 7"
0["
b1111111 o!
#3900000
0,
0a
#3910000
1,
1a
b1 R"
0X"
0L"
1M"
1w!
0d!
0D
1e!
1E
0B
#3920000
0,
0a
#3930000
1,
1a
b10 R"
0V
#3940000
0,
0a
#3950000
1,
1a
b11 R"
#3960000
0,
0a
#3970000
1,
1a
b100 R"
#3980000
0,
0a
#3990000
1,
1a
b101 R"
#4000000
0,
0a
#4010000
1,
1a
b110 R"
#4020000
0,
0a
#4030000
1,
1a
b111 R"
1["
b101 Q"
#4040000
0,
0a
