RTL/000_tlul/sim/spi_tb.vcd
$date
	Sun Jan 25 09:40:00 2026
$end
$version
	QuestaSim Version 2024.1
$end
$timescale
	1ps
$end

$scope module spi_tb $end
$var parameter 32 ! CLK_PERIOD $end
$var parameter 3 " TL_GET $end
$var parameter 3 # TL_PUT_FULL_DATA $end
$var parameter 32 $ SPI_BASE $end
$var parameter 32 % SPI_TX_DATA $end
$var parameter 32 & SPI_RX_DATA $end
$var parameter 32 ' SPI_STATUS $end
$var parameter 32 ( SPI_CONTROL $end
$var reg 1 ) clk $end
$var reg 1 * rst_n $end
$var reg 1 + tl_a_valid $end
$var reg 3 , tl_a_opcode [2:0] $end
$var reg 3 - tl_a_param [2:0] $end
$var reg 3 . tl_a_size [2:0] $end
$var reg 5 / tl_a_source [4:0] $end
$var reg 32 0 tl_a_address [31:0] $end
$var reg 4 1 tl_a_mask [3:0] $end
$var reg 32 2 tl_a_data [31:0] $end
$var reg 1 3 tl_a_corrupt $end
$var reg 1 4 tl_a_ready $end
$var reg 1 5 tl_d_valid $end
$var reg 3 6 tl_d_opcode [2:0] $end
$var reg 3 7 tl_d_param [2:0] $end
$var reg 3 8 tl_d_size [2:0] $end
$var reg 5 9 tl_d_source [4:0] $end
$var reg 1 : tl_d_sink [0:0] $end
$var reg 32 ; tl_d_data [31:0] $end
$var reg 1 < tl_d_denied $end
$var reg 1 = tl_d_corrupt $end
$var reg 1 > tl_d_ready $end
$var reg 1 ? spi_sclk $end
$var reg 1 @ spi_mosi $end
$var reg 1 A spi_miso $end
$var reg 1 B spi_cs_n $end
$var reg 32 C read_data [31:0] $end
$var integer 32 D test_count $end
$var integer 32 E pass_count $end
$var integer 32 F fail_count $end
$var reg 8 G slave_shift_reg [7:0] $end
$var reg 8 H slave_rx_data [7:0] $end
$var reg 3 I slave_bit_cnt [2:0] $end
$var reg 1 J slave_sclk_prev $end
$var reg 1 K slave_active $end
$var reg 8 L slave_received_byte [7:0] $end
$var reg 1 M slave_byte_valid $end

$scope task tl_write $end
$upscope $end

$scope task tl_read $end
$upscope $end

$scope task wait_spi_done $end
$upscope $end

$scope task test_register_rw $end
$upscope $end

$scope task test_spi_transfer $end
$upscope $end

$scope task test_multiple_transfers $end
$upscope $end

$scope task test_status_register $end
$upscope $end

$scope module u_dut $end
$var parameter 8 N ADDR_TX_DATA $end
$var parameter 8 O ADDR_RX_DATA $end
$var parameter 8 P ADDR_STATUS $end
$var parameter 8 Q ADDR_CONTROL $end
$var parameter 8 R ADDR_CS_CTRL $end
$var wire 1 S i_clk $end
$var wire 1 T i_rst_n $end
$var wire 1 U i_tl_a_valid $end
$var wire 1 V i_tl_a_opcode [2] $end
$var wire 1 W i_tl_a_opcode [1] $end
$var wire 1 X i_tl_a_opcode [0] $end
$var wire 1 Y i_tl_a_param [2] $end
$var wire 1 Z i_tl_a_param [1] $end
$var wire 1 [ i_tl_a_param [0] $end
$var wire 1 \ i_tl_a_size [2] $end
$var wire 1 ] i_tl_a_size [1] $end
$var wire 1 ^ i_tl_a_size [0] $end
$var wire 1 _ i_tl_a_source [4] $end
$var wire 1 ` i_tl_a_source [3] $end
$var wire 1 a i_tl_a_source [2] $end
$var wire 1 b i_tl_a_source [1] $end
$var wire 1 c i_tl_a_source [0] $end
$var wire 1 d i_tl_a_address [31] $end
$var wire 1 e i_tl_a_address [30] $end
$var wire 1 f i_tl_a_address [29] $end
$var wire 1 g i_tl_a_address [28] $end
$var wire 1 h i_tl_a_address [27] $end
$var wire 1 i i_tl_a_address [26] $end
$var wire 1 j i_tl_a_address [25] $end
$var wire 1 k i_tl_a_address [24] $end
$var wire 1 l i_tl_a_address [23] $end
$var wire 1 m i_tl_a_address [22] $end
$var wire 1 n i_tl_a_address [21] $end
$var wire 1 o i_tl_a_address [20] $end
$var wire 1 p i_tl_a_address [19] $end
$var wire 1 q i_tl_a_address [18] $end
$var wire 1 r i_tl_a_address [17] $end
$var wire 1 s i_tl_a_address [16] $end
$var wire 1 t i_tl_a_address [15] $end
$var wire 1 u i_tl_a_address [14] $end
$var wire 1 v i_tl_a_address [13] $end
$var wire 1 w i_tl_a_address [12] $end
$var wire 1 x i_tl_a_address [11] $end
$var wire 1 y i_tl_a_address [10] $end
$var wire 1 z i_tl_a_address [9] $end
$var wire 1 { i_tl_a_address [8] $end
$var wire 1 | i_tl_a_address [7] $end
$var wire 1 } i_tl_a_address [6] $end
$var wire 1 ~ i_tl_a_address [5] $end
$var wire 1 !! i_tl_a_address [4] $end
$var wire 1 "! i_tl_a_address [3] $end
$var wire 1 #! i_tl_a_address [2] $end
$var wire 1 $! i_tl_a_address [1] $end
$var wire 1 %! i_tl_a_address [0] $end
$var wire 1 &! i_tl_a_mask [3] $end
$var wire 1 '! i_tl_a_mask [2] $end
$var wire 1 (! i_tl_a_mask [1] $end
$var wire 1 )! i_tl_a_mask [0] $end
$var wire 1 *! i_tl_a_data [31] $end
$var wire 1 +! i_tl_a_data [30] $end
$var wire 1 ,! i_tl_a_data [29] $end
$var wire 1 -! i_tl_a_data [28] $end
$var wire 1 .! i_tl_a_data [27] $end
$var wire 1 /! i_tl_a_data [26] $end
$var wire 1 0! i_tl_a_data [25] $end
$var wire 1 1! i_tl_a_data [24] $end
$var wire 1 2! i_tl_a_data [23] $end
$var wire 1 3! i_tl_a_data [22] $end
$var wire 1 4! i_tl_a_data [21] $end
$var wire 1 5! i_tl_a_data [20] $end
$var wire 1 6! i_tl_a_data [19] $end
$var wire 1 7! i_tl_a_data [18] $end
$var wire 1 8! i_tl_a_data [17] $end
$var wire 1 9! i_tl_a_data [16] $end
$var wire 1 :! i_tl_a_data [15] $end
$var wire 1 ;! i_tl_a_data [14] $end
$var wire 1 <! i_tl_a_data [13] $end
$var wire 1 =! i_tl_a_data [12] $end
$var wire 1 >! i_tl_a_data [11] $end
$var wire 1 ?! i_tl_a_data [10] $end
$var wire 1 @! i_tl_a_data [9] $end
$var wire 1 A! i_tl_a_data [8] $end
$var wire 1 B! i_tl_a_data [7] $end
$var wire 1 C! i_tl_a_data [6] $end
$var wire 1 D! i_tl_a_data [5] $end
$var wire 1 E! i_tl_a_data [4] $end
$var wire 1 F! i_tl_a_data [3] $end
$var wire 1 G! i_tl_a_data [2] $end
$var wire 1 H! i_tl_a_data [1] $end
$var wire 1 I! i_tl_a_data [0] $end
$var wire 1 J! i_tl_a_corrupt $end
$var reg 1 K! o_tl_a_ready $end
$var reg 1 L! o_tl_d_valid $end
$var reg 3 M! o_tl_d_opcode [2:0] $end
$var reg 3 N! o_tl_d_param [2:0] $end
$var reg 3 O! o_tl_d_size [2:0] $end
$var reg 5 P! o_tl_d_source [4:0] $end
$var reg 1 Q! o_tl_d_sink [0:0] $end
$var reg 32 R! o_tl_d_data [31:0] $end
$var reg 1 S! o_tl_d_denied $end
$var reg 1 T! o_tl_d_corrupt $end
$var wire 1 U! i_tl_d_ready $end
$var reg 1 V! o_spi_sclk $end
$var reg 1 W! o_spi_mosi $end
$var wire 1 X! i_spi_miso $end
$var reg 1 Y! o_spi_cs_n $end
$var reg 1 Z! spi_start $end
$var reg 8 [! spi_tx_data [7:0] $end
$var reg 8 \! spi_rx_data [7:0] $end
$var reg 1 ]! spi_busy $end
$var reg 1 ^! spi_done $end
$var reg 8 _! reg_clk_div [7:0] $end
$var reg 1 `! reg_cpol $end
$var reg 1 a! reg_cpha $end
$var reg 1 b! reg_cs_manual $end
$var reg 8 c! reg_addr [7:0] $end
$var reg 3 d! req_opcode_q [2:0] $end
$var reg 3 e! req_size_q [2:0] $end
$var reg 5 f! req_source_q [4:0] $end
$var reg 1 g! req_valid_q $end
$var reg 1 h! reg_we $end
$var reg 32 i! reg_wdata [31:0] $end
$var reg 32 j! reg_rdata [31:0] $end
$var reg 8 k! addr_latch_q [7:0] $end

$scope module u_spi_master $end
$var wire 1 S i_clk $end
$var wire 1 T i_rst_n $end
$var wire 1 l! i_start $end
$var wire 1 m! i_tx_data [7] $end
$var wire 1 n! i_tx_data [6] $end
$var wire 1 o! i_tx_data [5] $end
$var wire 1 p! i_tx_data [4] $end
$var wire 1 q! i_tx_data [3] $end
$var wire 1 r! i_tx_data [2] $end
$var wire 1 s! i_tx_data [1] $end
$var wire 1 t! i_tx_data [0] $end
$var reg 8 u! o_rx_data [7:0] $end
$var reg 1 v! o_busy $end
$var reg 1 w! o_done $end
$var wire 1 x! i_clk_div [7] $end
$var wire 1 y! i_clk_div [6] $end
$var wire 1 z! i_clk_div [5] $end
$var wire 1 {! i_clk_div [4] $end
$var wire 1 |! i_clk_div [3] $end
$var wire 1 }! i_clk_div [2] $end
$var wire 1 ~! i_clk_div [1] $end
$var wire 1 !" i_clk_div [0] $end
$var wire 1 "" i_cpol $end
$var wire 1 #" i_cpha $end
$var reg 1 $" o_spi_sclk $end
$var reg 1 %" o_spi_mosi $end
$var wire 1 X! i_spi_miso $end
$var reg 1 &" o_spi_cs_n $end
$var reg 3 '" state_q [2:0] $end
$var reg 3 (" state_d [2:0] $end
$var reg 8 )" clk_cnt_q [7:0] $end
$var reg 8 *" tx_shift_q [7:0] $end
$var reg 8 +" rx_shift_q [7:0] $end
$var reg 4 ," bit_cnt_q [3:0] $end
$var reg 1 -" sclk_q $end
$var reg 1 ." sclk_edge $end
$var reg 1 /" leading_edge $end
$var reg 1 0" trailing_edge $end
$var reg 4 1" setup_cnt_q [3:0] $end
$upscope $end
$upscope $end
$upscope $end
$enddefinitions $end
#0
$dumpvars
0)
0*
0+
b0 ,
b0 -
b0 .
b0 /
b0 0
b0 1
b0 2
03
14
05
b0 6
b0 7
b0 8
b0 9
b0 :
b0 ;
0<
0=
1>
0?
0@
1A
1B
bx C
1K!
0L!
b0 M!
b0 N!
b0 O!
b0 P!
b0 Q!
b0 R!
0S!
0T!
0V!
0W!
1Y!
0Z!
b0 [!
b0 \!
0]!
0^!
b111 _!
0`!
0a!
0b!
b0 c!
b0 d!
b0 e!
b0 f!
0g!
0h!
b0 i!
b0 j!
b0 u!
0v!
0w!
0$"
0%"
1&"
b0 '"
b0 ("
b0 )"
b0 *"
b0 +"
b0 ,"
0-"
0."
0/"
00"
b0 1"
b0 k!
b10100101 G
bx H
b0 I
0J
0K
b0 L
0M
b10100 !
b100 "
b0 #
b10000000000100000000000000000 $
b10000000000100000000000000000 %
b10000000000100000000000000100 &
b10000000000100000000000001000 '
b10000000000100000000000001100 (
b0 N
b100 O
b1000 P
b1100 Q
b10000 R
b0 D
b0 E
b0 F
1X!
1U!
0J!
0I!
0H!
0G!
0F!
0E!
0D!
0C!
0B!
0A!
0@!
0?!
0>!
0=!
0<!
0;!
0:!
09!
08!
07!
06!
05!
04!
03!
02!
01!
00!
0/!
0.!
0-!
0,!
0+!
0*!
0)!
0(!
0'!
0&!
0%!
0$!
0#!
0"!
0!!
0~
0}
0|
0{
0z
0y
0x
0w
0v
0u
0t
0s
0r
0q
0p
0o
0n
0m
0l
0k
0j
0i
0h
0g
0f
0e
0d
0c
0b
0a
0`
0_
0^
0]
0\
0[
0Z
0Y
0X
0W
0V
0U
0T
0S
0#"
0""
1!"
1~!
1}!
0|!
0{!
0z!
0y!
0x!
0t!
0s!
0r!
0q!
0p!
0o!
0n!
0m!
0l!
$end
#10000
1)
1S
#20000
0)
0S
#30000
1)
1S
#40000
0)
0S
#50000
1)
1S
#60000
0)
0S
#70000
1)
1S
#80000
0)
0S
#90000
1)
1S
#100000
0)
0S
#110000
1)
1S
#120000
0)
0S
#130000
1)
1S
#140000
0)
0S
#150000
1)
1S
#160000
0)
0S
#170000
1)
1S
#180000
0)
0S
#190000
1)
1S
1*
1T
#200000
0)
0S
#210000
1)
1S
#220000
0)
0S
#230000
1)
1S
#240000
0)
0S
#250000
1)
1S
#260000
0)
0S
#270000
1)
1S
#280000
0)
0S
#290000
1)
1S
#300000
0)
0S
#310000
1)
1S
#320000
0)
0S
#330000
1)
1S
#340000
0)
0S
#350000
1)
1S
#360000
0)
0S
#370000
1)
1S
#380000
0)
0S
#390000
1)
1S
b1 D
#400000
0)
0S
#410000
1)
1S
1+
b10 .
b1 /
b10000000000100000000000000000 0
b1111 1
b10101011 2
1U
1I!
1H!
1F!
1D!
1B!
1)!
1(!
1'!
1&!
1r
1g
1c
1]
b10101011 i!
1h!
#420000
0)
0S
#430000
1)
1S
b10101011 [!
b10 e!
b1 f!
1g!
0+
0K!
1t!
1s!
1q!
1o!
1m!
0U
04
0h!
1L!
b10 O!
b1 P!
b10101011 j!
b1 9
b10 8
15
#440000
0)
0S
#450000
1)
1S
0g!
1K!
14
0L!
05
#460000
0)
0S
#470000
1)
1S
#480000
0)
0S
#490000
1)
1S
1+
b100 ,
b0 2
1U
0I!
0H!
0F!
0D!
0B!
1V
b0 i!
#500000
0)
0S
#510000
1)
1S
b100 d!
1g!
0+
0K!
0U
04
1L!
b1 M!
b10101011 R!
b10101011 ;
b1 6
15
#520000
0)
0S
#530000
1)
1S
0g!
1K!
14
0L!
05
#540000
0)
0S
#550000
1)
1S
b1 E
b10 D
#560000
0)
0S
#570000
1)
1S
1+
b0 ,
b10000000000100000000000001100 0
b1100001111 2
1U
1I!
1H!
1G!
1F!
1A!
1@!
1#!
1"!
0V
1h!
b1100 c!
b1100001111 i!
#580000
0)
0S
#590000
1)
1S
b1111 _!
1`!
1a!
b0 d!
1g!
b1100 k!
0+
0K!
1|!
1""
1#"
0U
04
0h!
1L!
b0 M!
b0 R!
b0 j!
b1100001111 j!
b0 ;
b0 6
15
#600000
0)
0S
#610000
1)
1S
1-"
0g!
1K!
1$"
1V!
14
1?
0L!
05
#620000
0)
0S
#630000
1)
1S
1J
#640000
0)
0S
#650000
1)
1S
1+
b100 ,
b0 2
1U
0I!
0H!
0G!
0F!
0A!
0@!
1V
b0 i!
#660000
0)
0S
#670000
1)
1S
b100 d!
1g!
0+
0K!
0U
04
1L!
b1 M!
b1100001111 R!
b1100001111 ;
b1 6
15
#680000
0)
0S
#690000
1)
1S
0g!
1K!
14
0L!
05
#700000
0)
0S
#710000
1)
1S
b10 E
b11 D
#720000
0)
0S
#730000
1)
1S
1+
b10000000000100000000000001000 0
1U
0#!
b1000 c!
#740000
0)
0S
#750000
1)
1S
1g!
b1000 k!
0+
0K!
0U
04
b0 j!
1L!
b0 R!
b0 ;
15
#760000
0)
0S
#770000
1)
1S
0g!
1K!
14
0L!
05
#780000
0)
0S
#790000
1)
1S
b11 E
b100 D
#800000
0)
0S
#810000
1)
1S
1+
b0 ,
b10000000000100000000000000000 0
b10101010 2
1U
1H!
1F!
1D!
1B!
0"!
0V
1h!
b0 c!
b10101010 i!
#820000
0)
0S
#830000
1)
1S
b10101010 [!
b0 d!
1g!
b0 k!
0+
0K!
0t!
0U
04
0h!
1L!
b0 M!
b10101010 j!
b0 6
15
#840000
0)
0S
#850000
1)
1S
0g!
1K!
14
0L!
05
#860000
0)
0S
#870000
1)
1S
#880000
0)
0S
#890000
1)
1S
1+
b10000000000100000000000001100 0
b10000000011 2
1U
1I!
0F!
0D!
0B!
1?!
1#!
1"!
b1100 c!
b10000000011 i!
1h!
#900000
0)
0S
#910000
1)
1S
b11 _!
0`!
0a!
1Z!
1g!
b1100 k!
0+
0K!
0}!
0|!
0""
0#"
0U
04
0h!
1l!
b1 ("
1L!
b0 j!
b11 j!
15
#920000
0)
0S
#930000
1)
1S
b1 '"
b10101010 *"
0-"
0g!
0Z!
1K!
0$"
1%"
0&"
1v!
1]!
0Y!
1W!
0V!
14
0?
1@
0B
0l!
b0 j!
b11 j!
0L!
05
#940000
0)
0S
#950000
1)
1S
b1 1"
0J
1K
#960000
0)
0S
#970000
1)
1S
b10 1"
1+
b100 ,
b10000000000100000000000001000 0
b0 2
1U
0I!
0H!
0?!
0#!
1V
b1000 c!
b0 i!
#980000
0)
0S
#990000
1)
1S
b11 1"
b100 d!
1g!
b1000 k!
0+
0K!
0U
04
b0 j!
b1 j!
1L!
b1 M!
b1 R!
b10 ("
b1 ;
b1 6
15
#1000000
0)
0S
#1010000
1)
1S
b100 1"
b10 '"
0g!
1K!
14
0L!
05
#1020000
0)
0S
#1030000
1)
1S
b100 E
b0 1"
b1 )"
#1040000
0)
0S
#1050000
1)
1S
b10 )"
1+
1U
#1060000
0)
0S
#1070000
1)
1S
1g!
b11 )"
0+
1."
0K!
0U
04
1/"
1L!
15
#1080000
0)
0S
#1090000
1)
1S
b1 ,"
b1 +"
1-"
b0 )"
0g!
1K!
0."
1$"
0/"
b1 u!
b1 \!
1V!
14
1?
b0 j!
b1 j!
0L!
05
#1100000
0)
0S
#1110000
1)
1S
b1 )"
1J
b1001011 G
b1 I
0A
0X!
#1120000
0)
0S
#1130000
1)
1S
b10 )"
1+
1U
#1140000
0)
0S
#1150000
1)
1S
1g!
b11 )"
0+
1."
0K!
0U
04
10"
1L!
15
#1160000
0)
0S
#1170000
1)
1S
b1010100 *"
0-"
b0 )"
0g!
1K!
0."
0$"
0%"
0W!
0V!
14
0?
0@
00"
0L!
05
#1180000
0)
0S
#1190000
1)
1S
b1 )"
0J
#1200000
0)
0S
#1210000
1)
1S
b10 )"
1+
1U
#1220000
0)
0S
#1230000
1)
1S
1g!
b11 )"
0+
1."
0K!
0U
04
1/"
1L!
15
#1240000
0)
0S
#1250000
1)
1S
b10 ,"
b10 +"
1-"
b0 )"
0g!
1K!
0."
1$"
0/"
b10 u!
b10 \!
1V!
14
1?
b0 j!
b1 j!
0L!
05
#1260000
0)
0S
#1270000
1)
1S
b1 )"
1J
b10010110 G
b10 I
1A
1X!
#1280000
0)
0S
#1290000
1)
1S
b10 )"
1+
1U
#1300000
0)
0S
#1310000
1)
1S
1g!
b11 )"
0+
1."
0K!
0U
04
10"
1L!
15
#1320000
0)
0S
#1330000
1)
1S
b10101000 *"
0-"
b0 )"
0g!
1K!
0."
0$"
1%"
1W!
0V!
14
0?
1@
00"
0L!
05
#1340000
0)
0S
#1350000
1)
1S
b1 )"
0J
#1360000
0)
0S
#1370000
1)
1S
b10 )"
1+
1U
#1380000
0)
0S
#1390000
1)
1S
1g!
b11 )"
0+
1."
0K!
0U
04
1/"
1L!
15
#1400000
0)
0S
#1410000
1)
1S
b11 ,"
b101 +"
1-"
b0 )"
0g!
1K!
0."
1$"
0/"
b101 u!
b101 \!
1V!
14
1?
b0 j!
b1 j!
0L!
05
#1420000
0)
0S
#1430000
1)
1S
b1 )"
1J
b101101 G
b11 I
0A
0X!
#1440000
0)
0S
#1450000
1)
1S
b10 )"
1+
1U
#1460000
0)
0S
#1470000
1)
1S
1g!
b11 )"
0+
1."
0K!
0U
04
10"
1L!
15
#1480000
0)
0S
#1490000
1)
1S
b1010000 *"
0-"
b0 )"
0g!
1K!
0."
0$"
0%"
0W!
0V!
14
0?
0@
00"
0L!
05
#1500000
0)
0S
#1510000
1)
1S
b1 )"
0J
#1520000
0)
0S
#1530000
1)
1S
b10 )"
1+
1U
#1540000
0)
0S
#1550000
1)
1S
1g!
b11 )"
0+
1."
0K!
0U
04
1/"
1L!
15
#1560000
0)
0S
#1570000
1)
1S
b100 ,"
b1010 +"
1-"
b0 )"
0g!
1K!
0."
1$"
0/"
b1010 u!
b1010 \!
1V!
14
1?
b0 j!
b1 j!
0L!
05
#1580000
0)
0S
#1590000
1)
1S
b1 )"
1J
b1011010 G
b100 I
#1600000
0)
0S
#1610000
1)
1S
b10 )"
1+
1U
#1620000
0)
0S
#1630000
1)
1S
1g!
b11 )"
0+
1."
0K!
0U
04
10"
1L!
15
#1640000
0)
0S
#1650000
1)
1S
b10100000 *"
0-"
b0 )"
0g!
1K!
0."
0$"
1%"
1W!
0V!
14
0?
1@
00"
0L!
05
#1660000
0)
0S
#1670000
1)
1S
b1 )"
0J
#1680000
0)
0S
#1690000
1)
1S
b10 )"
1+
1U
#1700000
0)
0S
#1710000
1)
1S
1g!
b11 )"
0+
1."
0K!
0U
04
1/"
1L!
15
#1720000
0)
0S
#1730000
1)
1S
b101 ,"
b10100 +"
1-"
b0 )"
0g!
1K!
0."
1$"
0/"
b10100 u!
b10100 \!
1V!
14
1?
b0 j!
b1 j!
0L!
05
#1740000
0)
0S
#1750000
1)
1S
b1 )"
1J
b10110101 G
b101 I
1A
1X!
#1760000
0)
0S
#1770000
1)
1S
b10 )"
1+
1U
#1780000
0)
0S
#1790000
1)
1S
1g!
b11 )"
0+
1."
0K!
0U
04
10"
1L!
15
#1800000
0)
0S
#1810000
1)
1S
b1000000 *"
0-"
b0 )"
0g!
1K!
0."
0$"
0%"
0W!
0V!
14
0?
0@
00"
0L!
05
#1820000
0)
0S
#1830000
1)
1S
b1 )"
0J
#1840000
0)
0S
#1850000
1)
1S
b10 )"
1+
1U
#1860000
0)
0S
#1870000
1)
1S
1g!
b11 )"
0+
1."
0K!
0U
04
1/"
1L!
15
#1880000
0)
0S
#1890000
1)
1S
b110 ,"
b101001 +"
1-"
b0 )"
0g!
1K!
0."
1$"
0/"
b101001 u!
b101001 \!
1V!
14
1?
b0 j!
b1 j!
0L!
05
#1900000
0)
0S
#1910000
1)
1S
b1 )"
1J
b1101010 G
b110 I
0A
0X!
#1920000
0)
0S
#1930000
1)
1S
b10 )"
1+
1U
#1940000
0)
0S
#1950000
1)
1S
1g!
b11 )"
0+
1."
0K!
0U
04
10"
1L!
15
#1960000
0)
0S
#1970000
1)
1S
b10000000 *"
0-"
b0 )"
0g!
1K!
0."
0$"
1%"
1W!
0V!
14
0?
1@
00"
0L!
05
#1980000
0)
0S
#1990000
1)
1S
b1 )"
0J
#2000000
0)
0S
#2010000
1)
1S
b10 )"
1+
1U
#2020000
0)
0S
#2030000
1)
1S
1g!
b11 )"
0+
1."
0K!
0U
04
1/"
1L!
15
#2040000
0)
0S
#2050000
1)
1S
b111 ,"
b1010010 +"
1-"
b0 )"
0g!
1K!
0."
1$"
0/"
b1010010 u!
b1010010 \!
1V!
14
1?
b0 j!
b1 j!
0L!
05
#2060000
0)
0S
#2070000
1)
1S
b1 )"
1J
b11010101 G
b111 I
1A
1X!
#2080000
0)
0S
#2090000
1)
1S
b10 )"
1+
1U
#2100000
0)
0S
#2110000
1)
1S
1g!
b11 )"
0+
1."
0K!
0U
04
10"
1L!
15
#2120000
0)
0S
#2130000
1)
1S
b0 *"
0-"
b0 )"
0g!
1K!
0."
0$"
0%"
0W!
0V!
14
0?
0@
00"
0L!
05
#2140000
0)
0S
#2150000
1)
1S
b1 )"
0J
#2160000
0)
0S
#2170000
1)
1S
b10 )"
1+
1U
#2180000
0)
0S
#2190000
1)
1S
1g!
b11 )"
0+
1."
0K!
0U
04
1/"
1L!
15
#2200000
0)
0S
#2210000
1)
1S
b1000 ,"
b10100101 +"
1-"
b0 )"
0g!
1K!
0."
1$"
0/"
b10100101 u!
b10100101 \!
1V!
14
1?
b0 j!
b1 j!
0L!
05
#2220000
0)
0S
#2230000
1)
1S
b1 )"
1J
b10101010 G
b0 I
b10101010 L
1M
#2240000
0)
0S
#2250000
1)
1S
b10 )"
0M
1+
1U
#2260000
0)
0S
#2270000
1)
1S
1g!
b11 )"
0+
1."
0K!
0U
04
10"
b11 ("
1L!
15
#2280000
0)
0S
#2290000
1)
1S
b11 '"
0-"
b0 )"
0g!
1K!
0$"
1/"
0."
0/"
0V!
14
0?
00"
0L!
05
#2300000
0)
0S
#2310000
1)
1S
b1 1"
0J
#2320000
0)
0S
#2330000
1)
1S
b10 1"
1+
1U
#2340000
0)
0S
#2350000
1)
1S
b11 1"
1g!
0+
0K!
0U
04
1L!
b100 ("
15
#2360000
0)
0S
#2370000
1)
1S
b100 1"
b100 '"
0g!
1K!
1w!
1&"
1Y!
1^!
14
1B
b0 j!
b11 j!
0L!
b11 R!
b0 ("
b11 ;
05
#2380000
0)
0S
#2390000
1)
1S
b0 1"
b0 '"
0K
b10100101 G
0v!
0w!
0^!
0]!
b0 j!
b0 R!
b0 ;
#2400000
0)
0S
#2410000
1)
1S
b0 ,"
1+
1U
#2420000
0)
0S
#2430000
1)
1S
1g!
0+
0K!
0U
04
1L!
15
#2440000
0)
0S
#2450000
1)
1S
0g!
1K!
14
0L!
05
#2460000
0)
0S
#2470000
1)
1S
b101 D
#2480000
0)
0S
#2490000
1)
1S
1+
1U
#2500000
0)
0S
#2510000
1)
1S
1g!
0+
0K!
0U
04
1L!
15
#2520000
0)
0S
#2530000
1)
1S
0g!
1K!
14
0L!
05
#2540000
0)
0S
#2550000
1)
1S
b101 E
b110 D
#2560000
0)
0S
#2570000
1)
1S
1+
b0 ,
b10000000000100000000000001100 0
b11 2
1U
1I!
1H!
1#!
0V
1h!
b1100 c!
b11 i!
#2580000
0)
0S
#2590000
1)
1S
b0 d!
1g!
b1100 k!
0+
0K!
0U
04
0h!
b11 j!
1L!
b0 M!
b0 6
15
#2600000
0)
0S
#2610000
1)
1S
0g!
1K!
14
0L!
05
#2620000
0)
0S
#2630000
1)
1S
#2640000
0)
0S
#2650000
1)
1S
1+
b10000000000100000000000000000 0
b11000101 2
1U
0H!
1G!
1C!
1B!
0#!
0"!
b0 c!
b11000101 i!
1h!
#2660000
0)
0S
#2670000
1)
1S
b11000101 [!
1g!
b0 k!
0+
0K!
1t!
0s!
1r!
0q!
0o!
1n!
0U
04
0h!
1L!
b0 j!
b11000101 j!
15
#2680000
0)
0S
#2690000
1)
1S
0g!
1K!
14
0L!
05
#2700000
0)
0S
#2710000
1)
1S
#2720000
0)
0S
#2730000
1)
1S
1+
b10000000000100000000000001100 0
b10000000011 2
1U
1H!
0G!
0C!
0B!
1?!
1#!
1"!
b1100 c!
b10000000011 i!
1h!
#2740000
0)
0S
#2750000
1)
1S
1Z!
1g!
b1100 k!
0+
0K!
0U
04
0h!
1l!
b1 ("
b0 j!
b11 j!
1L!
15
#2760000
0)
0S
#2770000
1)
1S
b1 '"
b11000101 *"
0g!
0Z!
1K!
1%"
0&"
1v!
1]!
0Y!
1W!
14
1@
0B
0l!
b0 j!
b11 j!
0L!
05
#2780000
0)
0S
#2790000
1)
1S
b1 1"
1K
#2800000
0)
0S
#2810000
1)
1S
b10 1"
1+
b100 ,
b10000000000100000000000001000 0
b0 2
1U
0I!
0H!
0?!
0#!
1V
b1000 c!
b0 i!
#2820000
0)
0S
#2830000
1)
1S
b11 1"
b100 d!
1g!
b1000 k!
0+
0K!
0U
04
b0 j!
b1 j!
1L!
b1 M!
b1 R!
b10 ("
b1 ;
b1 6
15
#2840000
0)
0S
#2850000
1)
1S
b100 1"
b10 '"
0g!
1K!
14
0L!
05
#2860000
0)
0S
#2870000
1)
1S
b0 1"
b1 )"
#2880000
0)
0S
#2890000
1)
1S
b10 )"
1+
1U
#2900000
0)
0S
#2910000
1)
1S
1g!
b11 )"
0+
1."
0K!
0U
04
1/"
1L!
15
#2920000
0)
0S
#2930000
1)
1S
b1 ,"
b1001011 +"
1-"
b0 )"
0g!
1K!
0."
1$"
0/"
b1001011 u!
b1001011 \!
1V!
14
1?
b0 j!
b1 j!
0L!
05
#2940000
0)
0S
#2950000
1)
1S
b1 )"
1J
b1001011 G
b1 I
0A
0X!
#2960000
0)
0S
#2970000
1)
1S
b10 )"
1+
1U
#2980000
0)
0S
#2990000
1)
1S
1g!
b11 )"
0+
1."
0K!
0U
04
10"
1L!
15
#3000000
0)
0S
#3010000
1)
1S
b10001010 *"
0-"
b0 )"
0g!
1K!
0."
0$"
0V!
14
0?
00"
0L!
05
#3020000
0)
0S
#3030000
1)
1S
b1 )"
0J
#3040000
0)
0S
#3050000
1)
1S
b10 )"
1+
1U
#3060000
0)
0S
#3070000
1)
1S
1g!
b11 )"
0+
1."
0K!
0U
04
1/"
1L!
15
#3080000
0)
0S
#3090000
1)
1S
b10 ,"
b10010110 +"
1-"
b0 )"
0g!
1K!
0."
1$"
0/"
b10010110 u!
b10010110 \!
1V!
14
1?
b0 j!
b1 j!
0L!
05
#3100000
0)
0S
#3110000
1)
1S
b1 )"
1J
b10010111 G
b10 I
1A
1X!
#3120000
0)
0S
#3130000
1)
1S
b10 )"
1+
1U
#3140000
0)
0S
#3150000
1)
1S
1g!
b11 )"
0+
1."
0K!
0U
04
10"
1L!
15
#3160000
0)
0S
#3170000
1)
1S
b10100 *"
0-"
b0 )"
0g!
1K!
0."
0$"
0%"
0W!
0V!
14
0?
0@
00"
0L!
05
#3180000
0)
0S
#3190000
1)
1S
b1 )"
0J
#3200000
0)
0S
#3210000
1)
1S
b10 )"
1+
1U
#3220000
0)
0S
#3230000
1)
1S
1g!
b11 )"
0+
1."
0K!
0U
04
1/"
1L!
15
#3240000
0)
0S
#3250000
1)
1S
b11 ,"
b101101 +"
1-"
b0 )"
0g!
1K!
0."
1$"
0/"
b101101 u!
b101101 \!
1V!
14
1?
b0 j!
b1 j!
0L!
05
#3260000
0)
0S
#3270000
1)
1S
b1 )"
1J
b101110 G
b11 I
0A
0X!
#3280000
0)
0S
#3290000
1)
1S
b10 )"
1+
1U
#3300000
0)
0S
#3310000
1)
1S
1g!
b11 )"
0+
1."
0K!
0U
04
10"
1L!
15
#3320000
0)
0S
#3330000
1)
1S
b101000 *"
0-"
b0 )"
0g!
1K!
0."
0$"
0V!
14
0?
00"
0L!
05
#3340000
0)
0S
#3350000
1)
1S
b1 )"
0J
#3360000
0)
0S
#3370000
1)
1S
b10 )"
1+
1U
#3380000
0)
0S
#3390000
1)
1S
1g!
b11 )"
0+
1."
0K!
0U
04
1/"
1L!
15
#3400000
0)
0S
#3410000
1)
1S
b100 ,"
b1011010 +"
1-"
b0 )"
0g!
1K!
0."
1$"
0/"
b1011010 u!
b1011010 \!
1V!
14
1?
b0 j!
b1 j!
0L!
05
#3420000
0)
0S
#3430000
1)
1S
b1 )"
1J
b1011100 G
b100 I
#3440000
0)
0S
#3450000
1)
1S
b10 )"
1+
1U
#3460000
0)
0S
