RTL/03_sim/uart_byte_tb.vcd
$date
	Mon Apr  6 22:41:25 2026
$end
$version
	QuestaSim Version 2024.1
$end
$timescale
	1ps
$end

$scope module uart_byte_tb $end
$var reg 1 ! clk $end
$var reg 1 " rst_n $end
$var reg 8 # tx_data [7:0] $end
$var reg 1 $ tx_send_en $end
$var reg 3 % tx_baud_set [2:0] $end
$var reg 1 & uart_wire $end
$var reg 1 ' tx_done $end
$var reg 1 ( tx_busy $end
$var reg 8 ) rx_data [7:0] $end
$var reg 1 * rx_done $end
$var reg 1 + rx_busy $end
$var reg 3 , rx_baud_set [2:0] $end
$var integer 32 - test_passed $end
$var integer 32 . test_failed $end

$scope task test_uart_loopback $end
$var reg 8 / data [7:0] $end
$upscope $end

$scope task test_back_to_back $end
$upscope $end

$scope task test_multiple_baud_rates $end
$upscope $end

$scope module u_tx $end
$var parameter 16 0 BPS_DR $end
$var wire 1 1 clk $end
$var wire 1 2 rst_n $end
$var wire 1 3 data_byte [7] $end
$var wire 1 4 data_byte [6] $end
$var wire 1 5 data_byte [5] $end
$var wire 1 6 data_byte [4] $end
$var wire 1 7 data_byte [3] $end
$var wire 1 8 data_byte [2] $end
$var wire 1 9 data_byte [1] $end
$var wire 1 : data_byte [0] $end
$var wire 1 ; send_en $end
$var reg 1 < uart_tx $end
$var reg 1 = tx_done $end
$var reg 1 > tx_busy $end
$var reg 16 ? div_cnt [15:0] $end
$var reg 1 @ bps_clk $end
$var reg 4 A bit_cnt [3:0] $end
$var reg 8 B tx_reg [7:0] $end
$var reg 2 C state_q [1:0] $end
$var reg 2 D state_d [1:0] $end
$upscope $end

$scope module u_rx $end
$var parameter 16 E BPS_DR $end
$var wire 1 F clk $end
$var wire 1 G rst_n $end
$var wire 1 H uart_rx $end
$var reg 8 I data_byte [7:0] $end
$var reg 1 J rx_done $end
$var reg 1 K rx_busy $end
$var reg 1 L rx_s1 $end
$var reg 1 M rx_s2 $end
$var reg 1 N rx_s2_prev $end
$var reg 1 O rx_negedge $end
$var reg 16 P div_cnt [15:0] $end
$var reg 1 Q bps_clk $end
$var reg 1 R start_bit_valid $end
$var reg 1 S reset_div_cnt $end
$var reg 2 T state_q [1:0] $end
$var reg 2 U state_d [1:0] $end
$var reg 4 V bit_cnt [3:0] $end
$var reg 8 W shift_reg [7:0] $end
$upscope $end
$upscope $end
$enddefinitions $end
#0
$dumpvars
0!
0"
b0 #
0$
b100 %
1&
0'
0(
b0 )
0*
0+
b100 ,
1<
0=
0>
b0 ?
0@
b0 A
b0 B
b0 C
b0 D
b0 I
0J
0K
1L
1M
1N
0O
b0 P
0Q
0R
0S
b0 T
b0 U
b0 V
b0 W
bx /
b110110001 0
b110110001 E
b0 -
b0 .
1H
0G
0F
0;
0:
09
08
07
06
05
04
03
02
01
$end
#10000
1!
11
1F
#20000
0!
01
0F
#30000
1!
11
1F
#40000
0!
01
0F
#50000
1!
11
1F
#60000
0!
01
0F
#70000
1!
11
1F
#80000
0!
01
0F
#90000
1!
11
1F
#100000
0!
01
0F
#110000
1!
11
1F
#120000
0!
01
0F
#130000
1!
11
1F
#140000
0!
01
0F
#150000
1!
11
1F
#160000
0!
01
0F
#170000
1!
11
1F
#180000
0!
01
0F
#190000
1!
11
1F
1"
12
1G
#200000
0!
01
0F
#210000
1!
11
1F
#220000
0!
01
0F
#230000
1!
11
1F
#240000
0!
01
0F
#250000
1!
11
1F
#260000
0!
01
0F
#270000
1!
11
1F
#280000
0!
01
0F
#290000
1!
11
1F
#300000
0!
01
0F
#310000
1!
11
1F
#320000
0!
01
0F
#330000
1!
11
1F
#340000
0!
01
0F
#350000
1!
11
1F
#360000
0!
01
0F
#370000
1!
11
1F
#380000
0!
01
0F
#390000
1!
11
1F
b10101010 /
b10101010 #
19
17
15
13
#400000
0!
01
0F
#410000
1!
11
1F
1$
1;
b1 D
#420000
0!
01
0F
#430000
1!
11
1F
0$
0;
b0 D
b1 C
b10101010 B
0<
0&
1>
1(
0H
b1 D
#440000
0!
01
0F
#450000
1!
11
1F
0L
b1 ?
#460000
0!
01
0F
#470000
1!
11
1F
0M
b10 ?
1O
b1 U
#480000
0!
01
0F
#490000
1!
11
1F
b1 T
0N
b11 ?
1K
1+
0O
#500000
0!
01
0F
#510000
1!
11
1F
b1 P
b100 ?
#520000
0!
01
0F
#530000
1!
11
1F
b10 P
b101 ?
#540000
0!
01
0F
#550000
1!
11
1F
b11 P
b110 ?
#560000
0!
01
0F
#570000
1!
11
1F
b100 P
b111 ?
#580000
0!
01
0F
#590000
1!
11
1F
b101 P
b1000 ?
#600000
0!
01
0F
#610000
1!
11
1F
b110 P
b1001 ?
#620000
0!
01
0F
#630000
1!
11
1F
b111 P
b1010 ?
#640000
0!
01
0F
#650000
1!
11
1F
b1000 P
b1011 ?
#660000
0!
01
0F
#670000
1!
11
1F
b1001 P
b1100 ?
#680000
0!
01
0F
#690000
1!
11
1F
b1010 P
b1101 ?
#700000
0!
01
0F
#710000
1!
11
1F
b1011 P
b1110 ?
#720000
0!
01
0F
#730000
1!
11
1F
b1100 P
b1111 ?
#740000
0!
01
0F
#750000
1!
11
1F
b1101 P
b10000 ?
#760000
0!
01
0F
#770000
1!
11
1F
b1110 P
b10001 ?
#780000
0!
01
0F
#790000
1!
11
1F
b1111 P
b10010 ?
#800000
0!
01
0F
#810000
1!
11
1F
b10000 P
b10011 ?
#820000
0!
01
0F
#830000
1!
11
1F
b10001 P
b10100 ?
#840000
0!
01
0F
#850000
1!
11
1F
b10010 P
b10101 ?
#860000
0!
01
0F
#870000
1!
11
1F
b10011 P
b10110 ?
#880000
0!
01
0F
#890000
1!
11
1F
b10100 P
b10111 ?
#900000
0!
01
0F
#910000
1!
11
1F
b10101 P
b11000 ?
#920000
0!
01
0F
#930000
1!
11
1F
b10110 P
b11001 ?
#940000
0!
01
0F
#950000
1!
11
1F
b10111 P
b11010 ?
#960000
0!
01
0F
#970000
1!
11
1F
b11000 P
b11011 ?
#980000
0!
01
0F
#990000
1!
11
1F
b11001 P
b11100 ?
#1000000
0!
01
0F
#1010000
1!
11
1F
b11010 P
b11101 ?
#1020000
0!
01
0F
#1030000
1!
11
1F
b11011 P
b11110 ?
#1040000
0!
01
0F
#1050000
1!
11
1F
b11100 P
b11111 ?
#1060000
0!
01
0F
#1070000
1!
11
1F
b11101 P
b100000 ?
#1080000
0!
01
0F
#1090000
1!
11
1F
b11110 P
b100001 ?
#1100000
0!
01
0F
#1110000
1!
11
1F
b11111 P
b100010 ?
#1120000
0!
01
0F
#1130000
1!
11
1F
b100000 P
b100011 ?
#1140000
0!
01
0F
#1150000
1!
11
1F
b100001 P
b100100 ?
#1160000
0!
01
0F
#1170000
1!
11
1F
b100010 P
b100101 ?
#1180000
0!
01
0F
#1190000
1!
11
1F
b100011 P
b100110 ?
#1200000
0!
01
0F
#1210000
1!
11
1F
b100100 P
b100111 ?
#1220000
0!
01
0F
#1230000
1!
11
1F
b100101 P
b101000 ?
#1240000
0!
01
0F
#1250000
1!
11
1F
b100110 P
b101001 ?
#1260000
0!
01
0F
#1270000
1!
11
1F
b100111 P
b101010 ?
#1280000
0!
01
0F
#1290000
1!
11
1F
b101000 P
b101011 ?
#1300000
0!
01
0F
#1310000
1!
11
1F
b101001 P
b101100 ?
#1320000
0!
01
0F
#1330000
1!
11
1F
b101010 P
b101101 ?
#1340000
0!
01
0F
#1350000
1!
11
1F
b101011 P
b101110 ?
#1360000
0!
01
0F
#1370000
1!
11
1F
b101100 P
b101111 ?
#1380000
0!
01
0F
#1390000
1!
11
1F
b101101 P
b110000 ?
#1400000
0!
01
0F
#1410000
1!
11
1F
b101110 P
b110001 ?
#1420000
0!
01
0F
#1430000
1!
11
1F
b101111 P
b110010 ?
#1440000
0!
01
0F
#1450000
1!
11
1F
b110000 P
b110011 ?
#1460000
0!
01
0F
#1470000
1!
11
1F
b110001 P
b110100 ?
#1480000
0!
01
0F
#1490000
1!
11
1F
b110010 P
b110101 ?
#1500000
0!
01
0F
#1510000
1!
11
1F
b110011 P
b110110 ?
#1520000
0!
01
0F
#1530000
1!
11
1F
b110100 P
b110111 ?
#1540000
0!
01
0F
#1550000
1!
11
1F
b110101 P
b111000 ?
#1560000
0!
01
0F
#1570000
1!
11
1F
b110110 P
b111001 ?
#1580000
0!
01
0F
#1590000
1!
11
1F
b110111 P
b111010 ?
#1600000
0!
01
0F
#1610000
1!
11
1F
b111000 P
b111011 ?
#1620000
0!
01
0F
#1630000
1!
11
1F
b111001 P
b111100 ?
#1640000
0!
01
0F
#1650000
1!
11
1F
b111010 P
b111101 ?
#1660000
0!
01
0F
#1670000
1!
11
1F
b111011 P
b111110 ?
#1680000
0!
01
0F
#1690000
1!
11
1F
b111100 P
b111111 ?
#1700000
0!
01
0F
#1710000
1!
11
1F
b111101 P
b1000000 ?
#1720000
0!
01
0F
#1730000
1!
11
1F
b111110 P
b1000001 ?
#1740000
0!
01
0F
#1750000
1!
11
1F
b111111 P
b1000010 ?
#1760000
0!
01
0F
#1770000
1!
11
1F
b1000000 P
b1000011 ?
#1780000
0!
01
0F
#1790000
1!
11
1F
b1000001 P
b1000100 ?
#1800000
0!
01
0F
#1810000
1!
11
1F
b1000010 P
b1000101 ?
#1820000
0!
01
0F
#1830000
1!
11
1F
b1000011 P
b1000110 ?
#1840000
0!
01
0F
#1850000
1!
11
1F
b1000100 P
b1000111 ?
#1860000
0!
01
0F
#1870000
1!
11
1F
b1000101 P
b1001000 ?
#1880000
0!
01
0F
#1890000
1!
11
1F
b1000110 P
b1001001 ?
#1900000
0!
01
0F
#1910000
1!
11
1F
b1000111 P
b1001010 ?
#1920000
0!
01
0F
#1930000
1!
11
1F
b1001000 P
b1001011 ?
#1940000
0!
01
0F
#1950000
1!
11
1F
b1001001 P
b1001100 ?
#1960000
0!
01
0F
#1970000
1!
11
1F
b1001010 P
b1001101 ?
#1980000
0!
01
0F
#1990000
1!
11
1F
b1001011 P
b1001110 ?
#2000000
0!
01
0F
#2010000
1!
11
1F
b1001100 P
b1001111 ?
#2020000
0!
01
0F
#2030000
1!
11
1F
b1001101 P
b1010000 ?
#2040000
0!
01
0F
#2050000
1!
11
1F
b1001110 P
b1010001 ?
#2060000
0!
01
0F
#2070000
1!
11
1F
b1001111 P
b1010010 ?
#2080000
0!
01
0F
#2090000
1!
11
1F
b1010000 P
b1010011 ?
#2100000
0!
01
0F
#2110000
1!
11
1F
b1010001 P
b1010100 ?
#2120000
0!
01
0F
#2130000
1!
11
1F
b1010010 P
b1010101 ?
#2140000
0!
01
0F
#2150000
1!
11
1F
b1010011 P
b1010110 ?
#2160000
0!
01
0F
#2170000
1!
11
1F
b1010100 P
b1010111 ?
#2180000
0!
01
0F
#2190000
1!
11
1F
b1010101 P
b1011000 ?
#2200000
0!
01
0F
#2210000
1!
11
1F
b1010110 P
b1011001 ?
#2220000
0!
01
0F
#2230000
1!
11
1F
b1010111 P
b1011010 ?
#2240000
0!
01
0F
#2250000
1!
11
1F
b1011000 P
b1011011 ?
#2260000
0!
01
0F
#2270000
1!
11
1F
b1011001 P
b1011100 ?
#2280000
0!
01
0F
#2290000
1!
11
1F
b1011010 P
b1011101 ?
#2300000
0!
01
0F
#2310000
1!
11
1F
b1011011 P
b1011110 ?
#2320000
0!
01
0F
#2330000
1!
11
1F
b1011100 P
b1011111 ?
#2340000
0!
01
0F
#2350000
1!
11
1F
b1011101 P
b1100000 ?
#2360000
0!
01
0F
#2370000
1!
11
1F
b1011110 P
b1100001 ?
#2380000
0!
01
0F
#2390000
1!
11
1F
b1011111 P
b1100010 ?
#2400000
0!
01
0F
#2410000
1!
11
1F
b1100000 P
b1100011 ?
#2420000
0!
01
0F
#2430000
1!
11
1F
b1100001 P
b1100100 ?
#2440000
0!
01
0F
#2450000
1!
11
1F
b1100010 P
b1100101 ?
#2460000
0!
01
0F
#2470000
1!
11
1F
b1100011 P
b1100110 ?
#2480000
0!
01
0F
#2490000
1!
11
1F
b1100100 P
b1100111 ?
#2500000
0!
01
0F
#2510000
1!
11
1F
b1100101 P
b1101000 ?
#2520000
0!
01
0F
#2530000
1!
11
1F
b1100110 P
b1101001 ?
#2540000
0!
01
0F
#2550000
1!
11
1F
b1100111 P
b1101010 ?
#2560000
0!
01
0F
#2570000
1!
11
1F
b1101000 P
b1101011 ?
#2580000
0!
01
0F
#2590000
1!
11
1F
b1101001 P
b1101100 ?
#2600000
0!
01
0F
#2610000
1!
11
1F
b1101010 P
b1101101 ?
#2620000
0!
01
0F
#2630000
1!
11
1F
b1101011 P
b1101110 ?
#2640000
0!
01
0F
#2650000
1!
11
1F
b1101100 P
b1101111 ?
#2660000
0!
01
0F
#2670000
1!
11
1F
b1101101 P
b1110000 ?
#2680000
0!
01
0F
#2690000
1!
11
1F
b1101110 P
b1110001 ?
#2700000
0!
01
0F
#2710000
1!
11
1F
b1101111 P
b1110010 ?
#2720000
0!
01
0F
#2730000
1!
11
1F
b1110000 P
b1110011 ?
#2740000
0!
01
0F
#2750000
1!
11
1F
b1110001 P
b1110100 ?
#2760000
0!
01
0F
#2770000
1!
11
1F
b1110010 P
b1110101 ?
#2780000
0!
01
0F
#2790000
1!
11
1F
b1110011 P
b1110110 ?
#2800000
0!
01
0F
#2810000
1!
11
1F
b1110100 P
b1110111 ?
#2820000
0!
01
0F
#2830000
1!
11
1F
b1110101 P
b1111000 ?
#2840000
0!
01
0F
#2850000
1!
11
1F
b1110110 P
b1111001 ?
#2860000
0!
01
0F
#2870000
1!
11
1F
b1110111 P
b1111010 ?
#2880000
0!
01
0F
#2890000
1!
11
1F
b1111000 P
b1111011 ?
#2900000
0!
01
0F
#2910000
1!
11
1F
b1111001 P
b1111100 ?
#2920000
0!
01
0F
#2930000
1!
11
1F
b1111010 P
b1111101 ?
#2940000
0!
01
0F
#2950000
1!
11
1F
b1111011 P
b1111110 ?
#2960000
0!
01
0F
#2970000
1!
11
1F
b1111100 P
b1111111 ?
#2980000
0!
01
0F
#2990000
1!
11
1F
b1111101 P
b10000000 ?
#3000000
0!
01
0F
#3010000
1!
11
1F
b1111110 P
b10000001 ?
#3020000
0!
01
0F
#3030000
1!
11
1F
b1111111 P
b10000010 ?
#3040000
0!
01
0F
#3050000
1!
11
1F
b10000000 P
b10000011 ?
#3060000
0!
01
0F
#3070000
1!
11
1F
b10000001 P
b10000100 ?
#3080000
0!
01
0F
#3090000
1!
11
1F
b10000010 P
b10000101 ?
#3100000
0!
01
0F
#3110000
1!
11
1F
b10000011 P
b10000110 ?
#3120000
0!
01
0F
#3130000
1!
11
1F
b10000100 P
b10000111 ?
#3140000
0!
01
0F
#3150000
1!
11
1F
b10000101 P
b10001000 ?
#3160000
0!
01
0F
#3170000
1!
11
1F
b10000110 P
b10001001 ?
#3180000
0!
01
0F
#3190000
1!
11
1F
b10000111 P
b10001010 ?
#3200000
0!
01
0F
#3210000
1!
11
1F
b10001000 P
b10001011 ?
#3220000
0!
01
0F
#3230000
1!
11
1F
b10001001 P
b10001100 ?
#3240000
0!
01
0F
#3250000
1!
11
1F
b10001010 P
b10001101 ?
#3260000
0!
01
0F
#3270000
1!
11
1F
b10001011 P
b10001110 ?
#3280000
0!
01
0F
#3290000
1!
11
1F
b10001100 P
b10001111 ?
#3300000
0!
01
0F
#3310000
1!
11
1F
b10001101 P
b10010000 ?
#3320000
0!
01
0F
#3330000
1!
11
1F
b10001110 P
b10010001 ?
#3340000
0!
01
0F
#3350000
1!
11
1F
b10001111 P
b10010010 ?
#3360000
0!
01
0F
#3370000
1!
11
1F
b10010000 P
b10010011 ?
#3380000
0!
01
0F
#3390000
1!
11
1F
b10010001 P
b10010100 ?
#3400000
0!
01
0F
#3410000
1!
11
1F
b10010010 P
b10010101 ?
#3420000
0!
01
0F
#3430000
1!
11
1F
b10010011 P
b10010110 ?
#3440000
0!
01
0F
#3450000
1!
11
1F
b10010100 P
b10010111 ?
#3460000
0!
01
0F
#3470000
1!
11
1F
b10010101 P
b10011000 ?
#3480000
0!
01
0F
#3490000
1!
11
1F
b10010110 P
b10011001 ?
#3500000
0!
01
0F
#3510000
1!
11
1F
b10010111 P
b10011010 ?
#3520000
0!
01
0F
#3530000
1!
11
1F
b10011000 P
b10011011 ?
#3540000
0!
01
0F
#3550000
1!
11
1F
b10011001 P
b10011100 ?
#3560000
0!
01
0F
#3570000
1!
11
1F
b10011010 P
b10011101 ?
#3580000
0!
01
0F
#3590000
1!
11
1F
b10011011 P
b10011110 ?
#3600000
0!
01
0F
#3610000
1!
11
1F
b10011100 P
b10011111 ?
#3620000
0!
01
0F
#3630000
1!
11
1F
b10011101 P
b10100000 ?
#3640000
0!
01
0F
#3650000
1!
11
1F
b10011110 P
b10100001 ?
#3660000
0!
01
0F
#3670000
1!
11
1F
b10011111 P
b10100010 ?
#3680000
0!
01
0F
#3690000
1!
11
1F
b10100000 P
b10100011 ?
#3700000
0!
01
0F
#3710000
1!
11
1F
b10100001 P
b10100100 ?
#3720000
0!
01
0F
#3730000
1!
11
1F
b10100010 P
b10100101 ?
#3740000
0!
01
0F
#3750000
1!
11
1F
b10100011 P
b10100110 ?
#3760000
0!
01
0F
#3770000
1!
11
1F
b10100100 P
b10100111 ?
#3780000
0!
01
0F
#3790000
1!
11
1F
b10100101 P
b10101000 ?
#3800000
0!
01
0F
#3810000
1!
11
1F
b10100110 P
b10101001 ?
#3820000
0!
01
0F
#3830000
1!
11
1F
b10100111 P
b10101010 ?
#3840000
0!
01
0F
#3850000
1!
11
1F
b10101000 P
b10101011 ?
#3860000
0!
01
0F
#3870000
1!
11
1F
b10101001 P
b10101100 ?
#3880000
0!
01
0F
#3890000
1!
11
1F
b10101010 P
b10101101 ?
#3900000
0!
01
0F
#3910000
1!
11
1F
b10101011 P
b10101110 ?
#3920000
0!
01
0F
#3930000
1!
11
1F
b10101100 P
b10101111 ?
#3940000
0!
01
0F
#3950000
1!
11
1F
b10101101 P
b10110000 ?
#3960000
0!
01
0F
#3970000
1!
11
1F
b10101110 P
b10110001 ?
#3980000
0!
01
0F
#3990000
1!
11
1F
b10101111 P
b10110010 ?
#4000000
0!
01
0F
#4010000
1!
11
1F
b10110000 P
b10110011 ?
#4020000
0!
01
0F
#4030000
1!
11
1F
b10110001 P
b10110100 ?
#4040000
0!
01
0F
#4050000
1!
11
1F
b10110010 P
b10110101 ?
#4060000
0!
01
0F
#4070000
1!
11
1F
b10110011 P
b10110110 ?
#4080000
0!
01
0F
#4090000
1!
11
1F
b10110100 P
b10110111 ?
#4100000
0!
01
0F
#4110000
1!
11
1F
b10110101 P
b10111000 ?
#4120000
0!
01
0F
#4130000
1!
11
1F
b10110110 P
b10111001 ?
#4140000
0!
01
0F
#4150000
1!
11
1F
b10110111 P
b10111010 ?
#4160000
0!
01
0F
#4170000
1!
11
1F
b10111000 P
b10111011 ?
#4180000
0!
01
0F
#4190000
1!
11
1F
b10111001 P
b10111100 ?
#4200000
0!
01
0F
#4210000
1!
11
1F
b10111010 P
b10111101 ?
#4220000
0!
01
0F
#4230000
1!
11
1F
b10111011 P
b10111110 ?
#4240000
0!
01
0F
#4250000
1!
11
1F
b10111100 P
b10111111 ?
#4260000
0!
01
0F
#4270000
1!
11
1F
b10111101 P
b11000000 ?
#4280000
0!
01
0F
#4290000
1!
11
1F
b10111110 P
b11000001 ?
#4300000
0!
01
0F
#4310000
1!
11
1F
b10111111 P
b11000010 ?
#4320000
0!
01
0F
#4330000
1!
11
1F
b11000000 P
b11000011 ?
#4340000
0!
01
0F
#4350000
1!
11
1F
b11000001 P
b11000100 ?
#4360000
0!
01
0F
#4370000
1!
11
1F
b11000010 P
b11000101 ?
#4380000
0!
01
0F
#4390000
1!
11
1F
b11000011 P
b11000110 ?
#4400000
0!
01
0F
#4410000
1!
11
1F
b11000100 P
b11000111 ?
#4420000
0!
01
0F
#4430000
1!
11
1F
b11000101 P
b11001000 ?
#4440000
0!
01
0F
#4450000
1!
11
1F
b11000110 P
b11001001 ?
#4460000
0!
01
0F
#4470000
1!
11
1F
b11000111 P
b11001010 ?
#4480000
0!
01
0F
#4490000
1!
11
1F
b11001000 P
b11001011 ?
#4500000
0!
01
0F
#4510000
1!
11
1F
b11001001 P
b11001100 ?
#4520000
0!
01
0F
#4530000
1!
11
1F
b11001010 P
b11001101 ?
#4540000
0!
01
0F
#4550000
1!
11
1F
b11001011 P
b11001110 ?
#4560000
0!
01
0F
#4570000
1!
11
1F
b11001100 P
b11001111 ?
#4580000
0!
01
0F
#4590000
1!
11
1F
b11001101 P
b11010000 ?
#4600000
0!
01
0F
#4610000
1!
11
1F
b11001110 P
b11010001 ?
#4620000
0!
01
0F
#4630000
1!
11
1F
b11001111 P
b11010010 ?
#4640000
0!
01
0F
#4650000
1!
11
1F
b11010000 P
b11010011 ?
#4660000
0!
01
0F
#4670000
1!
11
1F
b11010001 P
b11010100 ?
#4680000
0!
01
0F
#4690000
1!
11
1F
b11010010 P
b11010101 ?
#4700000
0!
01
0F
#4710000
1!
11
1F
b11010011 P
b11010110 ?
#4720000
0!
01
0F
#4730000
1!
11
1F
b11010100 P
b11010111 ?
#4740000
0!
01
0F
#4750000
1!
11
1F
b11010101 P
b11011000 ?
#4760000
0!
01
0F
#4770000
1!
11
1F
b11010110 P
b11011001 ?
#4780000
0!
01
0F
#4790000
1!
11
1F
b11010111 P
b11011010 ?
#4800000
0!
01
0F
#4810000
1!
11
1F
b11011000 P
b11011011 ?
#4820000
0!
01
0F
#4830000
1!
11
1F
b11011001 P
1R
b1 V
1S
b11011100 ?
#4840000
0!
01
0F
#4850000
1!
11
1F
b0 P
0S
b11011101 ?
#4860000
0!
01
0F
#4870000
1!
11
1F
b1 P
b11011110 ?
#4880000
0!
01
0F
#4890000
1!
11
1F
b10 P
b11011111 ?
#4900000
0!
01
0F
#4910000
1!
11
1F
b11 P
b11100000 ?
#4920000
0!
01
0F
#4930000
1!
11
1F
b100 P
b11100001 ?
#4940000
0!
01
0F
#4950000
1!
11
1F
b101 P
b11100010 ?
#4960000
0!
01
0F
#4970000
1!
11
1F
b110 P
b11100011 ?
#4980000
0!
01
0F
#4990000
1!
11
1F
b111 P
b11100100 ?
#5000000
0!
01
0F
#5010000
1!
11
1F
b1000 P
b11100101 ?
#5020000
0!
01
0F
#5030000
1!
11
1F
b1001 P
b11100110 ?
#5040000
0!
01
0F
#5050000
1!
11
1F
b1010 P
b11100111 ?
#5060000
0!
01
0F
#5070000
1!
11
1F
b1011 P
b11101000 ?
#5080000
0!
01
0F
#5090000
1!
11
1F
b1100 P
b11101001 ?
#5100000
0!
01
0F
#5110000
1!
11
1F
b1101 P
b11101010 ?
#5120000
0!
01
0F
#5130000
1!
11
1F
b1110 P
b11101011 ?
#5140000
0!
01
0F
#5150000
1!
11
1F
b1111 P
b11101100 ?
#5160000
0!
01
0F
#5170000
1!
11
1F
b10000 P
b11101101 ?
#5180000
0!
01
0F
#5190000
1!
11
1F
b10001 P
b11101110 ?
#5200000
0!
01
0F
#5210000
1!
11
1F
b10010 P
b11101111 ?
#5220000
0!
01
0F
#5230000
1!
11
1F
b10011 P
b11110000 ?
#5240000
0!
01
0F
#5250000
1!
11
1F
b10100 P
b11110001 ?
#5260000
0!
01
0F
#5270000
1!
11
1F
b10101 P
b11110010 ?
#5280000
0!
01
0F
#5290000
1!
11
1F
b10110 P
b11110011 ?
#5300000
0!
01
0F
#5310000
1!
11
1F
b10111 P
b11110100 ?
#5320000
0!
01
0F
#5330000
1!
11
1F
b11000 P
b11110101 ?
#5340000
0!
01
0F
#5350000
1!
11
1F
b11001 P
b11110110 ?
#5360000
0!
01
0F
#5370000
1!
11
1F
b11010 P
b11110111 ?
#5380000
0!
01
0F
#5390000
1!
11
1F
b11011 P
b11111000 ?
#5400000
0!
01
0F
#5410000
1!
11
1F
b11100 P
b11111001 ?
#5420000
0!
01
0F
#5430000
1!
11
1F
b11101 P
b11111010 ?
#5440000
0!
01
0F
#5450000
1!
11
1F
b11110 P
b11111011 ?
#5460000
0!
01
0F
#5470000
1!
11
1F
b11111 P
b11111100 ?
#5480000
0!
01
0F
#5490000
1!
11
1F
b100000 P
b11111101 ?
#5500000
0!
01
0F
#5510000
1!
11
1F
b100001 P
b11111110 ?
#5520000
0!
01
0F
#5530000
1!
11
1F
b100010 P
b11111111 ?
#5540000
0!
01
0F
#5550000
1!
11
1F
b100011 P
b100000000 ?
#5560000
0!
01
0F
#5570000
1!
11
1F
b100100 P
b100000001 ?
#5580000
0!
01
0F
#5590000
1!
11
1F
b100101 P
b100000010 ?
#5600000
0!
01
0F
#5610000
1!
11
1F
b100110 P
b100000011 ?
#5620000
0!
01
0F
#5630000
1!
11
1F
b100111 P
b100000100 ?
#5640000
0!
01
0F
#5650000
1!
11
1F
b101000 P
b100000101 ?
#5660000
0!
01
0F
#5670000
1!
11
1F
b101001 P
b100000110 ?
#5680000
0!
01
0F
#5690000
1!
11
1F
b101010 P
b100000111 ?
#5700000
0!
01
0F
#5710000
1!
11
1F
b101011 P
b100001000 ?
#5720000
0!
01
0F
#5730000
1!
11
1F
b101100 P
b100001001 ?
#5740000
0!
01
0F
#5750000
1!
11
1F
b101101 P
b100001010 ?
#5760000
0!
01
0F
#5770000
1!
11
1F
b101110 P
b100001011 ?
#5780000
0!
01
0F
#5790000
1!
11
1F
b101111 P
b100001100 ?
#5800000
0!
01
0F
#5810000
1!
11
1F
b110000 P
b100001101 ?
#5820000
0!
01
0F
#5830000
1!
11
1F
b110001 P
b100001110 ?
#5840000
0!
01
0F
#5850000
1!
11
1F
b110010 P
b100001111 ?
#5860000
0!
01
0F
#5870000
1!
11
1F
b110011 P
b100010000 ?
#5880000
0!
01
0F
#5890000
1!
11
1F
b110100 P
b100010001 ?
#5900000
0!
01
0F
#5910000
1!
11
1F
b110101 P
b100010010 ?
#5920000
0!
01
0F
#5930000
1!
11
1F
b110110 P
b100010011 ?
#5940000
0!
01
0F
#5950000
1!
11
1F
b110111 P
b100010100 ?
#5960000
0!
01
0F
#5970000
1!
11
1F
b111000 P
b100010101 ?
#5980000
0!
01
0F
#5990000
1!
11
1F
b111001 P
b100010110 ?
#6000000
0!
01
0F
#6010000
1!
11
1F
b111010 P
b100010111 ?
#6020000
0!
01
0F
#6030000
1!
11
1F
b111011 P
b100011000 ?
#6040000
0!
01
0F
#6050000
1!
11
1F
b111100 P
b100011001 ?
#6060000
0!
01
0F
#6070000
1!
11
1F
b111101 P
b100011010 ?
#6080000
0!
01
0F
#6090000
1!
11
1F
b111110 P
b100011011 ?
#6100000
0!
01
0F
#6110000
1!
11
1F
b111111 P
b100011100 ?
#6120000
0!
01
0F
#6130000
1!
11
1F
b1000000 P
b100011101 ?
#6140000
0!
01
0F
#6150000
1!
11
1F
b1000001 P
b100011110 ?
#6160000
0!
01
0F
#6170000
1!
11
1F
b1000010 P
b100011111 ?
#6180000
0!
01
0F
#6190000
1!
11
1F
b1000011 P
b100100000 ?
#6200000
0!
01
0F
#6210000
1!
11
1F
b1000100 P
b100100001 ?
#6220000
0!
01
0F
#6230000
1!
11
1F
b1000101 P
b100100010 ?
#6240000
0!
01
0F
#6250000
1!
11
1F
b1000110 P
b100100011 ?
#6260000
0!
01
0F
#6270000
1!
11
1F
b1000111 P
b100100100 ?
#6280000
0!
01
0F
#6290000
1!
11
1F
b1001000 P
b100100101 ?
#6300000
0!
01
0F
#6310000
1!
11
1F
b1001001 P
b100100110 ?
#6320000
0!
01
0F
#6330000
1!
11
1F
b1001010 P
b100100111 ?
#6340000
0!
01
0F
#6350000
1!
11
1F
b1001011 P
b100101000 ?
#6360000
0!
01
0F
#6370000
1!
11
1F
b1001100 P
b100101001 ?
#6380000
0!
01
0F
#6390000
1!
11
1F
b1001101 P
b100101010 ?
#6400000
0!
01
0F
#6410000
1!
11
1F
b1001110 P
b100101011 ?
#6420000
0!
01
0F
#6430000
1!
11
1F
b1001111 P
b100101100 ?
#6440000
0!
01
0F
#6450000
1!
11
1F
b1010000 P
b100101101 ?
#6460000
0!
01
0F
#6470000
1!
11
1F
b1010001 P
b100101110 ?
#6480000
0!
01
0F
#6490000
1!
11
1F
b1010010 P
b100101111 ?
#6500000
0!
01
0F
#6510000
1!
11
1F
b1010011 P
b100110000 ?
#6520000
0!
01
0F
#6530000
1!
11
1F
b1010100 P
b100110001 ?
#6540000
0!
01
0F
#6550000
1!
11
1F
b1010101 P
b100110010 ?
#6560000
0!
01
0F
#6570000
1!
11
1F
b1010110 P
b100110011 ?
#6580000
0!
01
0F
#6590000
1!
11
1F
b1010111 P
b100110100 ?
#6600000
0!
01
0F
#6610000
1!
11
1F
b1011000 P
b100110101 ?
#6620000
0!
01
0F
#6630000
1!
11
1F
b1011001 P
b100110110 ?
#6640000
0!
01
0F
#6650000
1!
11
1F
b1011010 P
b100110111 ?
#6660000
0!
01
0F
#6670000
1!
11
1F
b1011011 P
b100111000 ?
#6680000
0!
01
0F
#6690000
1!
11
1F
b1011100 P
b100111001 ?
#6700000
0!
01
0F
#6710000
1!
11
1F
b1011101 P
b100111010 ?
#6720000
0!
01
0F
#6730000
1!
11
1F
b1011110 P
b100111011 ?
#6740000
0!
01
0F
#6750000
1!
11
1F
b1011111 P
b100111100 ?
#6760000
0!
01
0F
#6770000
1!
11
1F
b1100000 P
b100111101 ?
#6780000
0!
01
0F
#6790000
1!
11
1F
b1100001 P
b100111110 ?
#6800000
0!
01
0F
#6810000
1!
11
1F
b1100010 P
b100111111 ?
#6820000
0!
01
0F
#6830000
1!
11
1F
b1100011 P
b101000000 ?
#6840000
0!
01
0F
#6850000
1!
11
1F
b1100100 P
b101000001 ?
#6860000
0!
01
0F
#6870000
1!
11
1F
b1100101 P
b101000010 ?
#6880000
0!
01
0F
